{
  "title": "WK kanji keisei",
  "format": 3,
  "revision": "WK-kanji-info_2024-05-03",
  "author": "Lionel Flandrin",
  "url": "https://gitlab.com/flio/wkanki",
  "description": "WaniKani kanji info",
  "sequenced": false
}