[
  [
    "wk_level",
    "misc",
    0,
    "WaniKani level",
    0
  ],
  [
    "semantic_component",
    "misc",
    1,
    "Semantic component",
    0
  ],
  [
    "phonetic_component",
    "misc",
    2,
    "Phonetic component",
    0
  ],
  [
    "full_phonetic",
    "misc",
    3,
    "Perfect phonetic matches",
    0
  ],
  [
    "partial_phonetic",
    "misc",
    4,
    "Partial phonetic matches",
    0
  ],
  [
    "nomatch_phonetic",
    "misc",
    5,
    "Phonetic mismatches",
    0
  ]
]