[
  [
    "一",
    "freq",
    1
  ],
  [
    "二",
    "freq",
    1
  ],
  [
    "九",
    "freq",
    1
  ],
  [
    "七",
    "freq",
    1
  ],
  [
    "人",
    "freq",
    1
  ],
  [
    "入",
    "freq",
    1
  ],
  [
    "八",
    "freq",
    1
  ],
  [
    "力",
    "freq",
    1
  ],
  [
    "十",
    "freq",
    1
  ],
  [
    "三",
    "freq",
    1
  ],
  [
    "上",
    "freq",
    1
  ],
  [
    "下",
    "freq",
    1
  ],
  [
    "口",
    "freq",
    1
  ],
  [
    "大",
    "freq",
    1
  ],
  [
    "女",
    "freq",
    1
  ],
  [
    "山",
    "freq",
    1
  ],
  [
    "川",
    "freq",
    1
  ],
  [
    "工",
    "freq",
    1
  ],
  [
    "刀",
    "freq",
    2
  ],
  [
    "土",
    "freq",
    2
  ],
  [
    "千",
    "freq",
    2
  ],
  [
    "夕",
    "freq",
    2
  ],
  [
    "子",
    "freq",
    2
  ],
  [
    "小",
    "freq",
    2
  ],
  [
    "丁",
    "freq",
    2
  ],
  [
    "丸",
    "freq",
    2
  ],
  [
    "才",
    "freq",
    2
  ],
  [
    "中",
    "freq",
    2
  ],
  [
    "五",
    "freq",
    2
  ],
  [
    "六",
    "freq",
    2
  ],
  [
    "円",
    "freq",
    2
  ],
  [
    "天",
    "freq",
    2
  ],
  [
    "手",
    "freq",
    2
  ],
  [
    "文",
    "freq",
    2
  ],
  [
    "日",
    "freq",
    2
  ],
  [
    "月",
    "freq",
    2
  ],
  [
    "木",
    "freq",
    2
  ],
  [
    "水",
    "freq",
    2
  ],
  [
    "火",
    "freq",
    2
  ],
  [
    "犬",
    "freq",
    2
  ],
  [
    "王",
    "freq",
    2
  ],
  [
    "出",
    "freq",
    2
  ],
  [
    "右",
    "freq",
    2
  ],
  [
    "四",
    "freq",
    2
  ],
  [
    "左",
    "freq",
    2
  ],
  [
    "本",
    "freq",
    2
  ],
  [
    "正",
    "freq",
    2
  ],
  [
    "玉",
    "freq",
    2
  ],
  [
    "田",
    "freq",
    2
  ],
  [
    "白",
    "freq",
    2
  ],
  [
    "目",
    "freq",
    2
  ],
  [
    "立",
    "freq",
    2
  ],
  [
    "々",
    "freq",
    2
  ],
  [
    "万",
    "freq",
    3
  ],
  [
    "今",
    "freq",
    3
  ],
  [
    "内",
    "freq",
    3
  ],
  [
    "分",
    "freq",
    3
  ],
  [
    "切",
    "freq",
    3
  ],
  [
    "午",
    "freq",
    3
  ],
  [
    "友",
    "freq",
    3
  ],
  [
    "太",
    "freq",
    3
  ],
  [
    "少",
    "freq",
    3
  ],
  [
    "引",
    "freq",
    3
  ],
  [
    "心",
    "freq",
    3
  ],
  [
    "戸",
    "freq",
    3
  ],
  [
    "方",
    "freq",
    3
  ],
  [
    "牛",
    "freq",
    3
  ],
  [
    "父",
    "freq",
    3
  ],
  [
    "毛",
    "freq",
    3
  ],
  [
    "止",
    "freq",
    3
  ],
  [
    "冬",
    "freq",
    3
  ],
  [
    "北",
    "freq",
    3
  ],
  [
    "半",
    "freq",
    3
  ],
  [
    "古",
    "freq",
    3
  ],
  [
    "台",
    "freq",
    3
  ],
  [
    "外",
    "freq",
    3
  ],
  [
    "市",
    "freq",
    3
  ],
  [
    "広",
    "freq",
    3
  ],
  [
    "母",
    "freq",
    3
  ],
  [
    "用",
    "freq",
    3
  ],
  [
    "矢",
    "freq",
    3
  ],
  [
    "生",
    "freq",
    3
  ],
  [
    "石",
    "freq",
    4
  ],
  [
    "元",
    "freq",
    4
  ],
  [
    "世",
    "freq",
    4
  ],
  [
    "主",
    "freq",
    4
  ],
  [
    "他",
    "freq",
    4
  ],
  [
    "写",
    "freq",
    4
  ],
  [
    "去",
    "freq",
    4
  ],
  [
    "号",
    "freq",
    4
  ],
  [
    "央",
    "freq",
    4
  ],
  [
    "平",
    "freq",
    4
  ],
  [
    "打",
    "freq",
    4
  ],
  [
    "氷",
    "freq",
    4
  ],
  [
    "申",
    "freq",
    4
  ],
  [
    "皿",
    "freq",
    4
  ],
  [
    "礼",
    "freq",
    4
  ],
  [
    "休",
    "freq",
    4
  ],
  [
    "先",
    "freq",
    4
  ],
  [
    "名",
    "freq",
    4
  ],
  [
    "字",
    "freq",
    4
  ],
  [
    "年",
    "freq",
    4
  ],
  [
    "早",
    "freq",
    4
  ],
  [
    "気",
    "freq",
    4
  ],
  [
    "百",
    "freq",
    4
  ],
  [
    "竹",
    "freq",
    4
  ],
  [
    "糸",
    "freq",
    4
  ],
  [
    "耳",
    "freq",
    4
  ],
  [
    "虫",
    "freq",
    4
  ],
  [
    "村",
    "freq",
    4
  ],
  [
    "男",
    "freq",
    4
  ],
  [
    "町",
    "freq",
    4
  ],
  [
    "花",
    "freq",
    4
  ],
  [
    "見",
    "freq",
    4
  ],
  [
    "貝",
    "freq",
    4
  ],
  [
    "赤",
    "freq",
    4
  ],
  [
    "足",
    "freq",
    4
  ],
  [
    "車",
    "freq",
    4
  ],
  [
    "不",
    "freq",
    4
  ],
  [
    "仕",
    "freq",
    4
  ],
  [
    "宝",
    "freq",
    4
  ],
  [
    "兄",
    "freq",
    5
  ],
  [
    "代",
    "freq",
    5
  ],
  [
    "皮",
    "freq",
    5
  ],
  [
    "交",
    "freq",
    5
  ],
  [
    "会",
    "freq",
    5
  ],
  [
    "光",
    "freq",
    5
  ],
  [
    "同",
    "freq",
    5
  ],
  [
    "回",
    "freq",
    5
  ],
  [
    "多",
    "freq",
    5
  ],
  [
    "当",
    "freq",
    5
  ],
  [
    "毎",
    "freq",
    5
  ],
  [
    "米",
    "freq",
    5
  ],
  [
    "羽",
    "freq",
    5
  ],
  [
    "考",
    "freq",
    5
  ],
  [
    "肉",
    "freq",
    5
  ],
  [
    "自",
    "freq",
    5
  ],
  [
    "色",
    "freq",
    5
  ],
  [
    "行",
    "freq",
    5
  ],
  [
    "西",
    "freq",
    5
  ],
  [
    "何",
    "freq",
    5
  ],
  [
    "体",
    "freq",
    5
  ],
  [
    "作",
    "freq",
    5
  ],
  [
    "図",
    "freq",
    5
  ],
  [
    "声",
    "freq",
    5
  ],
  [
    "弟",
    "freq",
    5
  ],
  [
    "形",
    "freq",
    5
  ],
  [
    "来",
    "freq",
    5
  ],
  [
    "社",
    "freq",
    5
  ],
  [
    "角",
    "freq",
    5
  ],
  [
    "言",
    "freq",
    5
  ],
  [
    "谷",
    "freq",
    5
  ],
  [
    "走",
    "freq",
    5
  ],
  [
    "近",
    "freq",
    5
  ],
  [
    "里",
    "freq",
    5
  ],
  [
    "麦",
    "freq",
    5
  ],
  [
    "学",
    "freq",
    5
  ],
  [
    "林",
    "freq",
    5
  ],
  [
    "空",
    "freq",
    5
  ],
  [
    "金",
    "freq",
    5
  ],
  [
    "雨",
    "freq",
    5
  ],
  [
    "青",
    "freq",
    5
  ],
  [
    "草",
    "freq",
    5
  ],
  [
    "音",
    "freq",
    5
  ],
  [
    "斤",
    "freq",
    5
  ],
  [
    "化",
    "freq",
    6
  ],
  [
    "地",
    "freq",
    6
  ],
  [
    "両",
    "freq",
    6
  ],
  [
    "全",
    "freq",
    6
  ],
  [
    "向",
    "freq",
    6
  ],
  [
    "安",
    "freq",
    6
  ],
  [
    "州",
    "freq",
    6
  ],
  [
    "曲",
    "freq",
    6
  ],
  [
    "有",
    "freq",
    6
  ],
  [
    "次",
    "freq",
    6
  ],
  [
    "死",
    "freq",
    6
  ],
  [
    "羊",
    "freq",
    6
  ],
  [
    "血",
    "freq",
    6
  ],
  [
    "京",
    "freq",
    6
  ],
  [
    "国",
    "freq",
    6
  ],
  [
    "夜",
    "freq",
    6
  ],
  [
    "妹",
    "freq",
    6
  ],
  [
    "姉",
    "freq",
    6
  ],
  [
    "店",
    "freq",
    6
  ],
  [
    "明",
    "freq",
    6
  ],
  [
    "東",
    "freq",
    6
  ],
  [
    "歩",
    "freq",
    6
  ],
  [
    "画",
    "freq",
    6
  ],
  [
    "直",
    "freq",
    6
  ],
  [
    "知",
    "freq",
    6
  ],
  [
    "長",
    "freq",
    6
  ],
  [
    "前",
    "freq",
    6
  ],
  [
    "南",
    "freq",
    6
  ],
  [
    "室",
    "freq",
    6
  ],
  [
    "後",
    "freq",
    6
  ],
  [
    "思",
    "freq",
    6
  ],
  [
    "星",
    "freq",
    6
  ],
  [
    "活",
    "freq",
    6
  ],
  [
    "海",
    "freq",
    6
  ],
  [
    "点",
    "freq",
    6
  ],
  [
    "科",
    "freq",
    6
  ],
  [
    "茶",
    "freq",
    6
  ],
  [
    "食",
    "freq",
    6
  ],
  [
    "首",
    "freq",
    6
  ],
  [
    "亡",
    "freq",
    6
  ],
  [
    "私",
    "freq",
    6
  ],
  [
    "取",
    "freq",
    6
  ],
  [
    "欠",
    "freq",
    7
  ],
  [
    "氏",
    "freq",
    7
  ],
  [
    "由",
    "freq",
    7
  ],
  [
    "札",
    "freq",
    7
  ],
  [
    "民",
    "freq",
    7
  ],
  [
    "辺",
    "freq",
    7
  ],
  [
    "付",
    "freq",
    7
  ],
  [
    "以",
    "freq",
    7
  ],
  [
    "失",
    "freq",
    7
  ],
  [
    "必",
    "freq",
    7
  ],
  [
    "未",
    "freq",
    7
  ],
  [
    "末",
    "freq",
    7
  ],
  [
    "校",
    "freq",
    7
  ],
  [
    "夏",
    "freq",
    7
  ],
  [
    "家",
    "freq",
    7
  ],
  [
    "弱",
    "freq",
    7
  ],
  [
    "時",
    "freq",
    7
  ],
  [
    "紙",
    "freq",
    7
  ],
  [
    "記",
    "freq",
    7
  ],
  [
    "通",
    "freq",
    7
  ],
  [
    "高",
    "freq",
    7
  ],
  [
    "強",
    "freq",
    7
  ],
  [
    "教",
    "freq",
    7
  ],
  [
    "理",
    "freq",
    7
  ],
  [
    "組",
    "freq",
    7
  ],
  [
    "船",
    "freq",
    7
  ],
  [
    "週",
    "freq",
    7
  ],
  [
    "雪",
    "freq",
    7
  ],
  [
    "魚",
    "freq",
    7
  ],
  [
    "鳥",
    "freq",
    7
  ],
  [
    "黄",
    "freq",
    7
  ],
  [
    "黒",
    "freq",
    7
  ],
  [
    "風",
    "freq",
    7
  ],
  [
    "池",
    "freq",
    8
  ],
  [
    "支",
    "freq",
    8
  ],
  [
    "住",
    "freq",
    8
  ],
  [
    "助",
    "freq",
    8
  ],
  [
    "医",
    "freq",
    8
  ],
  [
    "君",
    "freq",
    8
  ],
  [
    "対",
    "freq",
    8
  ],
  [
    "局",
    "freq",
    8
  ],
  [
    "役",
    "freq",
    8
  ],
  [
    "投",
    "freq",
    8
  ],
  [
    "決",
    "freq",
    8
  ],
  [
    "究",
    "freq",
    8
  ],
  [
    "身",
    "freq",
    8
  ],
  [
    "者",
    "freq",
    8
  ],
  [
    "研",
    "freq",
    8
  ],
  [
    "馬",
    "freq",
    8
  ],
  [
    "森",
    "freq",
    8
  ],
  [
    "場",
    "freq",
    8
  ],
  [
    "朝",
    "freq",
    8
  ],
  [
    "番",
    "freq",
    8
  ],
  [
    "答",
    "freq",
    8
  ],
  [
    "絵",
    "freq",
    8
  ],
  [
    "買",
    "freq",
    8
  ],
  [
    "道",
    "freq",
    8
  ],
  [
    "間",
    "freq",
    8
  ],
  [
    "雲",
    "freq",
    8
  ],
  [
    "数",
    "freq",
    8
  ],
  [
    "楽",
    "freq",
    8
  ],
  [
    "話",
    "freq",
    8
  ],
  [
    "電",
    "freq",
    8
  ],
  [
    "所",
    "freq",
    8
  ],
  [
    "反",
    "freq",
    8
  ],
  [
    "売",
    "freq",
    9
  ],
  [
    "事",
    "freq",
    9
  ],
  [
    "使",
    "freq",
    9
  ],
  [
    "具",
    "freq",
    9
  ],
  [
    "受",
    "freq",
    9
  ],
  [
    "和",
    "freq",
    9
  ],
  [
    "定",
    "freq",
    9
  ],
  [
    "実",
    "freq",
    9
  ],
  [
    "服",
    "freq",
    9
  ],
  [
    "泳",
    "freq",
    9
  ],
  [
    "物",
    "freq",
    9
  ],
  [
    "苦",
    "freq",
    9
  ],
  [
    "表",
    "freq",
    9
  ],
  [
    "部",
    "freq",
    9
  ],
  [
    "乗",
    "freq",
    9
  ],
  [
    "客",
    "freq",
    9
  ],
  [
    "屋",
    "freq",
    9
  ],
  [
    "度",
    "freq",
    9
  ],
  [
    "持",
    "freq",
    9
  ],
  [
    "界",
    "freq",
    9
  ],
  [
    "発",
    "freq",
    9
  ],
  [
    "相",
    "freq",
    9
  ],
  [
    "県",
    "freq",
    9
  ],
  [
    "美",
    "freq",
    9
  ],
  [
    "負",
    "freq",
    9
  ],
  [
    "送",
    "freq",
    9
  ],
  [
    "重",
    "freq",
    9
  ],
  [
    "談",
    "freq",
    9
  ],
  [
    "要",
    "freq",
    9
  ],
  [
    "勝",
    "freq",
    9
  ],
  [
    "仮",
    "freq",
    9
  ],
  [
    "予",
    "freq",
    9
  ],
  [
    "新",
    "freq",
    9
  ],
  [
    "返",
    "freq",
    9
  ],
  [
    "保",
    "freq",
    9
  ],
  [
    "試",
    "freq",
    9
  ],
  [
    "験",
    "freq",
    9
  ],
  [
    "比",
    "freq",
    9
  ],
  [
    "了",
    "freq",
    10
  ],
  [
    "公",
    "freq",
    10
  ],
  [
    "始",
    "freq",
    10
  ],
  [
    "起",
    "freq",
    10
  ],
  [
    "速",
    "freq",
    10
  ],
  [
    "配",
    "freq",
    10
  ],
  [
    "酒",
    "freq",
    10
  ],
  [
    "院",
    "freq",
    10
  ],
  [
    "終",
    "freq",
    10
  ],
  [
    "習",
    "freq",
    10
  ],
  [
    "転",
    "freq",
    10
  ],
  [
    "進",
    "freq",
    10
  ],
  [
    "落",
    "freq",
    10
  ],
  [
    "葉",
    "freq",
    10
  ],
  [
    "軽",
    "freq",
    10
  ],
  [
    "運",
    "freq",
    10
  ],
  [
    "開",
    "freq",
    10
  ],
  [
    "集",
    "freq",
    10
  ],
  [
    "飲",
    "freq",
    10
  ],
  [
    "業",
    "freq",
    10
  ],
  [
    "漢",
    "freq",
    10
  ],
  [
    "路",
    "freq",
    10
  ],
  [
    "農",
    "freq",
    10
  ],
  [
    "鉄",
    "freq",
    10
  ],
  [
    "歌",
    "freq",
    10
  ],
  [
    "算",
    "freq",
    10
  ],
  [
    "聞",
    "freq",
    10
  ],
  [
    "語",
    "freq",
    10
  ],
  [
    "読",
    "freq",
    10
  ],
  [
    "鳴",
    "freq",
    10
  ],
  [
    "線",
    "freq",
    10
  ],
  [
    "横",
    "freq",
    10
  ],
  [
    "調",
    "freq",
    10
  ],
  [
    "親",
    "freq",
    10
  ],
  [
    "頭",
    "freq",
    10
  ],
  [
    "顔",
    "freq",
    10
  ],
  [
    "病",
    "freq",
    10
  ],
  [
    "最",
    "freq",
    10
  ],
  [
    "求",
    "freq",
    10
  ],
  [
    "頁",
    "freq",
    10
  ],
  [
    "争",
    "freq",
    11
  ],
  [
    "仲",
    "freq",
    11
  ],
  [
    "伝",
    "freq",
    11
  ],
  [
    "共",
    "freq",
    11
  ],
  [
    "好",
    "freq",
    11
  ],
  [
    "成",
    "freq",
    11
  ],
  [
    "老",
    "freq",
    11
  ],
  [
    "位",
    "freq",
    11
  ],
  [
    "低",
    "freq",
    11
  ],
  [
    "初",
    "freq",
    11
  ],
  [
    "別",
    "freq",
    11
  ],
  [
    "利",
    "freq",
    11
  ],
  [
    "努",
    "freq",
    11
  ],
  [
    "労",
    "freq",
    11
  ],
  [
    "命",
    "freq",
    11
  ],
  [
    "岸",
    "freq",
    11
  ],
  [
    "放",
    "freq",
    11
  ],
  [
    "昔",
    "freq",
    11
  ],
  [
    "波",
    "freq",
    11
  ],
  [
    "注",
    "freq",
    11
  ],
  [
    "育",
    "freq",
    11
  ],
  [
    "拾",
    "freq",
    11
  ],
  [
    "指",
    "freq",
    11
  ],
  [
    "洋",
    "freq",
    11
  ],
  [
    "神",
    "freq",
    11
  ],
  [
    "秒",
    "freq",
    11
  ],
  [
    "級",
    "freq",
    11
  ],
  [
    "追",
    "freq",
    11
  ],
  [
    "戦",
    "freq",
    11
  ],
  [
    "競",
    "freq",
    11
  ],
  [
    "良",
    "freq",
    11
  ],
  [
    "功",
    "freq",
    11
  ],
  [
    "特",
    "freq",
    11
  ],
  [
    "便",
    "freq",
    11
  ],
  [
    "働",
    "freq",
    11
  ],
  [
    "令",
    "freq",
    11
  ],
  [
    "意",
    "freq",
    11
  ],
  [
    "味",
    "freq",
    11
  ],
  [
    "誰",
    "freq",
    11
  ],
  [
    "待",
    "freq",
    12
  ],
  [
    "勉",
    "freq",
    12
  ],
  [
    "庭",
    "freq",
    12
  ],
  [
    "息",
    "freq",
    12
  ],
  [
    "旅",
    "freq",
    12
  ],
  [
    "根",
    "freq",
    12
  ],
  [
    "流",
    "freq",
    12
  ],
  [
    "消",
    "freq",
    12
  ],
  [
    "倍",
    "freq",
    12
  ],
  [
    "員",
    "freq",
    12
  ],
  [
    "島",
    "freq",
    12
  ],
  [
    "祭",
    "freq",
    12
  ],
  [
    "章",
    "freq",
    12
  ],
  [
    "第",
    "freq",
    12
  ],
  [
    "都",
    "freq",
    12
  ],
  [
    "動",
    "freq",
    12
  ],
  [
    "商",
    "freq",
    12
  ],
  [
    "悪",
    "freq",
    12
  ],
  [
    "族",
    "freq",
    12
  ],
  [
    "深",
    "freq",
    12
  ],
  [
    "球",
    "freq",
    12
  ],
  [
    "童",
    "freq",
    12
  ],
  [
    "陽",
    "freq",
    12
  ],
  [
    "階",
    "freq",
    12
  ],
  [
    "寒",
    "freq",
    12
  ],
  [
    "暑",
    "freq",
    12
  ],
  [
    "期",
    "freq",
    12
  ],
  [
    "植",
    "freq",
    12
  ],
  [
    "歯",
    "freq",
    12
  ],
  [
    "温",
    "freq",
    12
  ],
  [
    "港",
    "freq",
    12
  ],
  [
    "湯",
    "freq",
    12
  ],
  [
    "登",
    "freq",
    12
  ],
  [
    "着",
    "freq",
    12
  ],
  [
    "短",
    "freq",
    12
  ],
  [
    "野",
    "freq",
    12
  ],
  [
    "泉",
    "freq",
    12
  ],
  [
    "合",
    "freq",
    12
  ],
  [
    "彼",
    "freq",
    12
  ],
  [
    "僕",
    "freq",
    12
  ],
  [
    "問",
    "freq",
    13
  ],
  [
    "宿",
    "freq",
    13
  ],
  [
    "想",
    "freq",
    13
  ],
  [
    "感",
    "freq",
    13
  ],
  [
    "整",
    "freq",
    13
  ],
  [
    "暗",
    "freq",
    13
  ],
  [
    "様",
    "freq",
    13
  ],
  [
    "橋",
    "freq",
    13
  ],
  [
    "緑",
    "freq",
    13
  ],
  [
    "練",
    "freq",
    13
  ],
  [
    "詩",
    "freq",
    13
  ],
  [
    "銀",
    "freq",
    13
  ],
  [
    "題",
    "freq",
    13
  ],
  [
    "館",
    "freq",
    13
  ],
  [
    "駅",
    "freq",
    13
  ],
  [
    "億",
    "freq",
    13
  ],
  [
    "器",
    "freq",
    13
  ],
  [
    "士",
    "freq",
    13
  ],
  [
    "料",
    "freq",
    13
  ],
  [
    "標",
    "freq",
    13
  ],
  [
    "殺",
    "freq",
    13
  ],
  [
    "然",
    "freq",
    13
  ],
  [
    "熱",
    "freq",
    13
  ],
  [
    "課",
    "freq",
    13
  ],
  [
    "賞",
    "freq",
    13
  ],
  [
    "輪",
    "freq",
    13
  ],
  [
    "選",
    "freq",
    13
  ],
  [
    "鏡",
    "freq",
    13
  ],
  [
    "養",
    "freq",
    13
  ],
  [
    "像",
    "freq",
    13
  ],
  [
    "情",
    "freq",
    13
  ],
  [
    "謝",
    "freq",
    13
  ],
  [
    "映",
    "freq",
    13
  ],
  [
    "疑",
    "freq",
    13
  ],
  [
    "皆",
    "freq",
    13
  ],
  [
    "俺",
    "freq",
    13
  ],
  [
    "缶",
    "freq",
    13
  ],
  [
    "願",
    "freq",
    14
  ],
  [
    "例",
    "freq",
    14
  ],
  [
    "卒",
    "freq",
    14
  ],
  [
    "協",
    "freq",
    14
  ],
  [
    "参",
    "freq",
    14
  ],
  [
    "周",
    "freq",
    14
  ],
  [
    "囲",
    "freq",
    14
  ],
  [
    "固",
    "freq",
    14
  ],
  [
    "季",
    "freq",
    14
  ],
  [
    "完",
    "freq",
    14
  ],
  [
    "希",
    "freq",
    14
  ],
  [
    "念",
    "freq",
    14
  ],
  [
    "折",
    "freq",
    14
  ],
  [
    "望",
    "freq",
    14
  ],
  [
    "材",
    "freq",
    14
  ],
  [
    "束",
    "freq",
    14
  ],
  [
    "松",
    "freq",
    14
  ],
  [
    "残",
    "freq",
    14
  ],
  [
    "的",
    "freq",
    14
  ],
  [
    "約",
    "freq",
    14
  ],
  [
    "芸",
    "freq",
    14
  ],
  [
    "基",
    "freq",
    14
  ],
  [
    "性",
    "freq",
    14
  ],
  [
    "格",
    "freq",
    14
  ],
  [
    "能",
    "freq",
    14
  ],
  [
    "骨",
    "freq",
    14
  ],
  [
    "妥",
    "freq",
    14
  ],
  [
    "雰",
    "freq",
    14
  ],
  [
    "頑",
    "freq",
    14
  ],
  [
    "苺",
    "freq",
    14
  ],
  [
    "狼",
    "freq",
    14
  ],
  [
    "福",
    "freq",
    15
  ],
  [
    "技",
    "freq",
    15
  ],
  [
    "術",
    "freq",
    15
  ],
  [
    "寺",
    "freq",
    15
  ],
  [
    "岩",
    "freq",
    15
  ],
  [
    "帰",
    "freq",
    15
  ],
  [
    "春",
    "freq",
    15
  ],
  [
    "昼",
    "freq",
    15
  ],
  [
    "晴",
    "freq",
    15
  ],
  [
    "秋",
    "freq",
    15
  ],
  [
    "計",
    "freq",
    15
  ],
  [
    "列",
    "freq",
    15
  ],
  [
    "区",
    "freq",
    15
  ],
  [
    "坂",
    "freq",
    15
  ],
  [
    "式",
    "freq",
    15
  ],
  [
    "信",
    "freq",
    15
  ],
  [
    "勇",
    "freq",
    15
  ],
  [
    "単",
    "freq",
    15
  ],
  [
    "司",
    "freq",
    15
  ],
  [
    "変",
    "freq",
    15
  ],
  [
    "夫",
    "freq",
    15
  ],
  [
    "建",
    "freq",
    15
  ],
  [
    "昨",
    "freq",
    15
  ],
  [
    "毒",
    "freq",
    15
  ],
  [
    "法",
    "freq",
    15
  ],
  [
    "泣",
    "freq",
    15
  ],
  [
    "浅",
    "freq",
    15
  ],
  [
    "紀",
    "freq",
    15
  ],
  [
    "英",
    "freq",
    15
  ],
  [
    "軍",
    "freq",
    15
  ],
  [
    "飯",
    "freq",
    15
  ],
  [
    "仏",
    "freq",
    15
  ],
  [
    "築",
    "freq",
    15
  ],
  [
    "晩",
    "freq",
    15
  ],
  [
    "猫",
    "freq",
    15
  ],
  [
    "払",
    "freq",
    15
  ],
  [
    "匹",
    "freq",
    15
  ],
  [
    "丈",
    "freq",
    15
  ],
  [
    "園",
    "freq",
    16
  ],
  [
    "曜",
    "freq",
    16
  ],
  [
    "書",
    "freq",
    16
  ],
  [
    "遠",
    "freq",
    16
  ],
  [
    "門",
    "freq",
    16
  ],
  [
    "係",
    "freq",
    16
  ],
  [
    "品",
    "freq",
    16
  ],
  [
    "守",
    "freq",
    16
  ],
  [
    "幸",
    "freq",
    16
  ],
  [
    "急",
    "freq",
    16
  ],
  [
    "真",
    "freq",
    16
  ],
  [
    "箱",
    "freq",
    16
  ],
  [
    "荷",
    "freq",
    16
  ],
  [
    "面",
    "freq",
    16
  ],
  [
    "典",
    "freq",
    16
  ],
  [
    "府",
    "freq",
    16
  ],
  [
    "治",
    "freq",
    16
  ],
  [
    "浴",
    "freq",
    16
  ],
  [
    "笑",
    "freq",
    16
  ],
  [
    "辞",
    "freq",
    16
  ],
  [
    "関",
    "freq",
    16
  ],
  [
    "弁",
    "freq",
    16
  ],
  [
    "政",
    "freq",
    16
  ],
  [
    "留",
    "freq",
    16
  ],
  [
    "証",
    "freq",
    16
  ],
  [
    "険",
    "freq",
    16
  ],
  [
    "危",
    "freq",
    16
  ],
  [
    "存",
    "freq",
    16
  ],
  [
    "専",
    "freq",
    16
  ],
  [
    "冒",
    "freq",
    16
  ],
  [
    "冗",
    "freq",
    16
  ],
  [
    "阪",
    "freq",
    16
  ],
  [
    "悲",
    "freq",
    17
  ],
  [
    "喜",
    "freq",
    17
  ],
  [
    "原",
    "freq",
    17
  ],
  [
    "細",
    "freq",
    17
  ],
  [
    "薬",
    "freq",
    17
  ],
  [
    "鼻",
    "freq",
    17
  ],
  [
    "側",
    "freq",
    17
  ],
  [
    "兵",
    "freq",
    17
  ],
  [
    "堂",
    "freq",
    17
  ],
  [
    "塩",
    "freq",
    17
  ],
  [
    "席",
    "freq",
    17
  ],
  [
    "敗",
    "freq",
    17
  ],
  [
    "果",
    "freq",
    17
  ],
  [
    "梅",
    "freq",
    17
  ],
  [
    "無",
    "freq",
    17
  ],
  [
    "結",
    "freq",
    17
  ],
  [
    "因",
    "freq",
    17
  ],
  [
    "常",
    "freq",
    17
  ],
  [
    "識",
    "freq",
    17
  ],
  [
    "非",
    "freq",
    17
  ],
  [
    "干",
    "freq",
    17
  ],
  [
    "是",
    "freq",
    17
  ],
  [
    "渉",
    "freq",
    17
  ],
  [
    "官",
    "freq",
    17
  ],
  [
    "察",
    "freq",
    17
  ],
  [
    "底",
    "freq",
    17
  ],
  [
    "愛",
    "freq",
    17
  ],
  [
    "署",
    "freq",
    17
  ],
  [
    "警",
    "freq",
    17
  ],
  [
    "恋",
    "freq",
    17
  ],
  [
    "覚",
    "freq",
    17
  ],
  [
    "説",
    "freq",
    17
  ],
  [
    "幻",
    "freq",
    17
  ],
  [
    "詳",
    "freq",
    17
  ],
  [
    "劇",
    "freq",
    17
  ],
  [
    "訓",
    "freq",
    18
  ],
  [
    "弓",
    "freq",
    18
  ],
  [
    "告",
    "freq",
    18
  ],
  [
    "種",
    "freq",
    18
  ],
  [
    "達",
    "freq",
    18
  ],
  [
    "類",
    "freq",
    18
  ],
  [
    "報",
    "freq",
    18
  ],
  [
    "等",
    "freq",
    18
  ],
  [
    "汽",
    "freq",
    18
  ],
  [
    "借",
    "freq",
    18
  ],
  [
    "焼",
    "freq",
    18
  ],
  [
    "座",
    "freq",
    18
  ],
  [
    "忘",
    "freq",
    18
  ],
  [
    "洗",
    "freq",
    18
  ],
  [
    "胸",
    "freq",
    18
  ],
  [
    "脳",
    "freq",
    18
  ],
  [
    "僧",
    "freq",
    18
  ],
  [
    "禅",
    "freq",
    18
  ],
  [
    "可",
    "freq",
    18
  ],
  [
    "許",
    "freq",
    18
  ],
  [
    "枚",
    "freq",
    18
  ],
  [
    "静",
    "freq",
    18
  ],
  [
    "句",
    "freq",
    18
  ],
  [
    "禁",
    "freq",
    18
  ],
  [
    "喫",
    "freq",
    18
  ],
  [
    "煙",
    "freq",
    18
  ],
  [
    "喉",
    "freq",
    18
  ],
  [
    "叩",
    "freq",
    18
  ],
  [
    "飴",
    "freq",
    18
  ],
  [
    "苛",
    "freq",
    18
  ],
  [
    "繋",
    "freq",
    18
  ],
  [
    "加",
    "freq",
    19
  ],
  [
    "節",
    "freq",
    19
  ],
  [
    "減",
    "freq",
    19
  ],
  [
    "順",
    "freq",
    19
  ],
  [
    "容",
    "freq",
    19
  ],
  [
    "布",
    "freq",
    19
  ],
  [
    "易",
    "freq",
    19
  ],
  [
    "財",
    "freq",
    19
  ],
  [
    "若",
    "freq",
    19
  ],
  [
    "詞",
    "freq",
    19
  ],
  [
    "昆",
    "freq",
    19
  ],
  [
    "閥",
    "freq",
    19
  ],
  [
    "歴",
    "freq",
    19
  ],
  [
    "舌",
    "freq",
    19
  ],
  [
    "冊",
    "freq",
    19
  ],
  [
    "宇",
    "freq",
    19
  ],
  [
    "宙",
    "freq",
    19
  ],
  [
    "忙",
    "freq",
    19
  ],
  [
    "履",
    "freq",
    19
  ],
  [
    "団",
    "freq",
    19
  ],
  [
    "暴",
    "freq",
    19
  ],
  [
    "混",
    "freq",
    19
  ],
  [
    "乱",
    "freq",
    19
  ],
  [
    "徒",
    "freq",
    19
  ],
  [
    "得",
    "freq",
    19
  ],
  [
    "改",
    "freq",
    19
  ],
  [
    "続",
    "freq",
    19
  ],
  [
    "連",
    "freq",
    19
  ],
  [
    "善",
    "freq",
    19
  ],
  [
    "絡",
    "freq",
    19
  ],
  [
    "笛",
    "freq",
    19
  ],
  [
    "史",
    "freq",
    19
  ],
  [
    "芋",
    "freq",
    19
  ],
  [
    "埋",
    "freq",
    19
  ],
  [
    "困",
    "freq",
    20
  ],
  [
    "災",
    "freq",
    20
  ],
  [
    "機",
    "freq",
    20
  ],
  [
    "率",
    "freq",
    20
  ],
  [
    "飛",
    "freq",
    20
  ],
  [
    "害",
    "freq",
    20
  ],
  [
    "余",
    "freq",
    20
  ],
  [
    "難",
    "freq",
    20
  ],
  [
    "被",
    "freq",
    20
  ],
  [
    "裕",
    "freq",
    20
  ],
  [
    "震",
    "freq",
    20
  ],
  [
    "尻",
    "freq",
    20
  ],
  [
    "尾",
    "freq",
    20
  ],
  [
    "械",
    "freq",
    20
  ],
  [
    "確",
    "freq",
    20
  ],
  [
    "嫌",
    "freq",
    20
  ],
  [
    "個",
    "freq",
    20
  ],
  [
    "圧",
    "freq",
    20
  ],
  [
    "在",
    "freq",
    20
  ],
  [
    "夢",
    "freq",
    20
  ],
  [
    "産",
    "freq",
    20
  ],
  [
    "倒",
    "freq",
    20
  ],
  [
    "臭",
    "freq",
    20
  ],
  [
    "厚",
    "freq",
    20
  ],
  [
    "妻",
    "freq",
    20
  ],
  [
    "議",
    "freq",
    20
  ],
  [
    "犯",
    "freq",
    20
  ],
  [
    "罪",
    "freq",
    20
  ],
  [
    "防",
    "freq",
    20
  ],
  [
    "穴",
    "freq",
    20
  ],
  [
    "論",
    "freq",
    20
  ],
  [
    "経",
    "freq",
    20
  ],
  [
    "祈",
    "freq",
    21
  ],
  [
    "敵",
    "freq",
    21
  ],
  [
    "済",
    "freq",
    21
  ],
  [
    "委",
    "freq",
    21
  ],
  [
    "挙",
    "freq",
    21
  ],
  [
    "判",
    "freq",
    21
  ],
  [
    "制",
    "freq",
    21
  ],
  [
    "務",
    "freq",
    21
  ],
  [
    "査",
    "freq",
    21
  ],
  [
    "総",
    "freq",
    21
  ],
  [
    "設",
    "freq",
    21
  ],
  [
    "資",
    "freq",
    21
  ],
  [
    "権",
    "freq",
    21
  ],
  [
    "件",
    "freq",
    21
  ],
  [
    "派",
    "freq",
    21
  ],
  [
    "岡",
    "freq",
    21
  ],
  [
    "素",
    "freq",
    21
  ],
  [
    "断",
    "freq",
    21
  ],
  [
    "批",
    "freq",
    21
  ],
  [
    "任",
    "freq",
    21
  ],
  [
    "検",
    "freq",
    21
  ],
  [
    "条",
    "freq",
    21
  ],
  [
    "責",
    "freq",
    21
  ],
  [
    "省",
    "freq",
    21
  ],
  [
    "増",
    "freq",
    21
  ],
  [
    "税",
    "freq",
    21
  ],
  [
    "解",
    "freq",
    21
  ],
  [
    "際",
    "freq",
    21
  ],
  [
    "認",
    "freq",
    21
  ],
  [
    "企",
    "freq",
    21
  ],
  [
    "義",
    "freq",
    21
  ],
  [
    "羨",
    "freq",
    21
  ],
  [
    "評",
    "freq",
    22
  ],
  [
    "罰",
    "freq",
    22
  ],
  [
    "誕",
    "freq",
    22
  ],
  [
    "脱",
    "freq",
    22
  ],
  [
    "過",
    "freq",
    22
  ],
  [
    "坊",
    "freq",
    22
  ],
  [
    "寝",
    "freq",
    22
  ],
  [
    "宮",
    "freq",
    22
  ],
  [
    "各",
    "freq",
    22
  ],
  [
    "案",
    "freq",
    22
  ],
  [
    "置",
    "freq",
    22
  ],
  [
    "費",
    "freq",
    22
  ],
  [
    "価",
    "freq",
    22
  ],
  [
    "勢",
    "freq",
    22
  ],
  [
    "営",
    "freq",
    22
  ],
  [
    "示",
    "freq",
    22
  ],
  [
    "統",
    "freq",
    22
  ],
  [
    "領",
    "freq",
    22
  ],
  [
    "策",
    "freq",
    22
  ],
  [
    "藤",
    "freq",
    22
  ],
  [
    "副",
    "freq",
    22
  ],
  [
    "観",
    "freq",
    22
  ],
  [
    "値",
    "freq",
    22
  ],
  [
    "吸",
    "freq",
    22
  ],
  [
    "域",
    "freq",
    22
  ],
  [
    "姿",
    "freq",
    22
  ],
  [
    "応",
    "freq",
    22
  ],
  [
    "提",
    "freq",
    22
  ],
  [
    "援",
    "freq",
    22
  ],
  [
    "状",
    "freq",
    22
  ],
  [
    "態",
    "freq",
    22
  ],
  [
    "賀",
    "freq",
    22
  ],
  [
    "降",
    "freq",
    22
  ],
  [
    "諦",
    "freq",
    22
  ],
  [
    "袖",
    "freq",
    22
  ],
  [
    "収",
    "freq",
    23
  ],
  [
    "停",
    "freq",
    23
  ],
  [
    "革",
    "freq",
    23
  ],
  [
    "職",
    "freq",
    23
  ],
  [
    "鬼",
    "freq",
    23
  ],
  [
    "護",
    "freq",
    23
  ],
  [
    "割",
    "freq",
    23
  ],
  [
    "裁",
    "freq",
    23
  ],
  [
    "崎",
    "freq",
    23
  ],
  [
    "演",
    "freq",
    23
  ],
  [
    "律",
    "freq",
    23
  ],
  [
    "師",
    "freq",
    23
  ],
  [
    "看",
    "freq",
    23
  ],
  [
    "準",
    "freq",
    23
  ],
  [
    "則",
    "freq",
    23
  ],
  [
    "備",
    "freq",
    23
  ],
  [
    "導",
    "freq",
    23
  ],
  [
    "幹",
    "freq",
    23
  ],
  [
    "張",
    "freq",
    23
  ],
  [
    "優",
    "freq",
    23
  ],
  [
    "宅",
    "freq",
    23
  ],
  [
    "沢",
    "freq",
    23
  ],
  [
    "贅",
    "freq",
    23
  ],
  [
    "施",
    "freq",
    23
  ],
  [
    "現",
    "freq",
    23
  ],
  [
    "乳",
    "freq",
    23
  ],
  [
    "呼",
    "freq",
    23
  ],
  [
    "城",
    "freq",
    23
  ],
  [
    "俳",
    "freq",
    23
  ],
  [
    "秀",
    "freq",
    23
  ],
  [
    "棚",
    "freq",
    23
  ],
  [
    "紫",
    "freq",
    23
  ],
  [
    "痒",
    "freq",
    23
  ],
  [
    "審",
    "freq",
    24
  ],
  [
    "規",
    "freq",
    24
  ],
  [
    "担",
    "freq",
    24
  ],
  [
    "額",
    "freq",
    24
  ],
  [
    "製",
    "freq",
    24
  ],
  [
    "違",
    "freq",
    24
  ],
  [
    "輸",
    "freq",
    24
  ],
  [
    "燃",
    "freq",
    24
  ],
  [
    "祝",
    "freq",
    24
  ],
  [
    "届",
    "freq",
    24
  ],
  [
    "狭",
    "freq",
    24
  ],
  [
    "肩",
    "freq",
    24
  ],
  [
    "腕",
    "freq",
    24
  ],
  [
    "腰",
    "freq",
    24
  ],
  [
    "触",
    "freq",
    24
  ],
  [
    "載",
    "freq",
    24
  ],
  [
    "層",
    "freq",
    24
  ],
  [
    "型",
    "freq",
    24
  ],
  [
    "庁",
    "freq",
    24
  ],
  [
    "視",
    "freq",
    24
  ],
  [
    "差",
    "freq",
    24
  ],
  [
    "管",
    "freq",
    24
  ],
  [
    "象",
    "freq",
    24
  ],
  [
    "量",
    "freq",
    24
  ],
  [
    "境",
    "freq",
    24
  ],
  [
    "環",
    "freq",
    24
  ],
  [
    "武",
    "freq",
    24
  ],
  [
    "質",
    "freq",
    24
  ],
  [
    "述",
    "freq",
    24
  ],
  [
    "供",
    "freq",
    24
  ],
  [
    "展",
    "freq",
    24
  ],
  [
    "販",
    "freq",
    24
  ],
  [
    "株",
    "freq",
    24
  ],
  [
    "栄",
    "freq",
    25
  ],
  [
    "限",
    "freq",
    25
  ],
  [
    "与",
    "freq",
    25
  ],
  [
    "含",
    "freq",
    25
  ],
  [
    "影",
    "freq",
    25
  ],
  [
    "況",
    "freq",
    25
  ],
  [
    "渡",
    "freq",
    25
  ],
  [
    "響",
    "freq",
    25
  ],
  [
    "票",
    "freq",
    25
  ],
  [
    "景",
    "freq",
    25
  ],
  [
    "抜",
    "freq",
    25
  ],
  [
    "訴",
    "freq",
    25
  ],
  [
    "訟",
    "freq",
    25
  ],
  [
    "逮",
    "freq",
    25
  ],
  [
    "補",
    "freq",
    25
  ],
  [
    "候",
    "freq",
    25
  ],
  [
    "構",
    "freq",
    25
  ],
  [
    "模",
    "freq",
    25
  ],
  [
    "捕",
    "freq",
    25
  ],
  [
    "鮮",
    "freq",
    25
  ],
  [
    "効",
    "freq",
    25
  ],
  [
    "属",
    "freq",
    25
  ],
  [
    "慣",
    "freq",
    25
  ],
  [
    "豊",
    "freq",
    25
  ],
  [
    "満",
    "freq",
    25
  ],
  [
    "肥",
    "freq",
    25
  ],
  [
    "巻",
    "freq",
    25
  ],
  [
    "捜",
    "freq",
    25
  ],
  [
    "絞",
    "freq",
    25
  ],
  [
    "輩",
    "freq",
    25
  ],
  [
    "隠",
    "freq",
    25
  ],
  [
    "掛",
    "freq",
    25
  ],
  [
    "替",
    "freq",
    25
  ],
  [
    "居",
    "freq",
    25
  ],
  [
    "給",
    "freq",
    25
  ],
  [
    "絶",
    "freq",
    25
  ],
  [
    "涼",
    "freq",
    25
  ],
  [
    "捉",
    "freq",
    25
  ],
  [
    "莫",
    "freq",
    25
  ],
  [
    "造",
    "freq",
    26
  ],
  [
    "授",
    "freq",
    26
  ],
  [
    "印",
    "freq",
    26
  ],
  [
    "創",
    "freq",
    26
  ],
  [
    "復",
    "freq",
    26
  ],
  [
    "往",
    "freq",
    26
  ],
  [
    "較",
    "freq",
    26
  ],
  [
    "筆",
    "freq",
    26
  ],
  [
    "鉛",
    "freq",
    26
  ],
  [
    "貯",
    "freq",
    26
  ],
  [
    "故",
    "freq",
    26
  ],
  [
    "障",
    "freq",
    26
  ],
  [
    "従",
    "freq",
    26
  ],
  [
    "我",
    "freq",
    26
  ],
  [
    "激",
    "freq",
    26
  ],
  [
    "刺",
    "freq",
    26
  ],
  [
    "励",
    "freq",
    26
  ],
  [
    "討",
    "freq",
    26
  ],
  [
    "郵",
    "freq",
    26
  ],
  [
    "針",
    "freq",
    26
  ],
  [
    "徴",
    "freq",
    26
  ],
  [
    "怪",
    "freq",
    26
  ],
  [
    "獣",
    "freq",
    26
  ],
  [
    "突",
    "freq",
    26
  ],
  [
    "菓",
    "freq",
    26
  ],
  [
    "河",
    "freq",
    26
  ],
  [
    "振",
    "freq",
    26
  ],
  [
    "汗",
    "freq",
    26
  ],
  [
    "豚",
    "freq",
    26
  ],
  [
    "再",
    "freq",
    26
  ],
  [
    "接",
    "freq",
    26
  ],
  [
    "独",
    "freq",
    26
  ],
  [
    "占",
    "freq",
    26
  ],
  [
    "招",
    "freq",
    27
  ],
  [
    "段",
    "freq",
    27
  ],
  [
    "胃",
    "freq",
    27
  ],
  [
    "腹",
    "freq",
    27
  ],
  [
    "痛",
    "freq",
    27
  ],
  [
    "退",
    "freq",
    27
  ],
  [
    "屈",
    "freq",
    27
  ],
  [
    "悩",
    "freq",
    27
  ],
  [
    "暇",
    "freq",
    27
  ],
  [
    "織",
    "freq",
    27
  ],
  [
    "貸",
    "freq",
    27
  ],
  [
    "迷",
    "freq",
    27
  ],
  [
    "惑",
    "freq",
    27
  ],
  [
    "誘",
    "freq",
    27
  ],
  [
    "就",
    "freq",
    27
  ],
  [
    "訪",
    "freq",
    27
  ],
  [
    "怒",
    "freq",
    27
  ],
  [
    "昇",
    "freq",
    27
  ],
  [
    "眠",
    "freq",
    27
  ],
  [
    "睡",
    "freq",
    27
  ],
  [
    "症",
    "freq",
    27
  ],
  [
    "締",
    "freq",
    27
  ],
  [
    "迫",
    "freq",
    27
  ],
  [
    "靴",
    "freq",
    27
  ],
  [
    "濃",
    "freq",
    27
  ],
  [
    "端",
    "freq",
    27
  ],
  [
    "極",
    "freq",
    27
  ],
  [
    "途",
    "freq",
    27
  ],
  [
    "健",
    "freq",
    27
  ],
  [
    "康",
    "freq",
    27
  ],
  [
    "郎",
    "freq",
    27
  ],
  [
    "憧",
    "freq",
    27
  ],
  [
    "逆",
    "freq",
    28
  ],
  [
    "巨",
    "freq",
    28
  ],
  [
    "庫",
    "freq",
    28
  ],
  [
    "児",
    "freq",
    28
  ],
  [
    "冷",
    "freq",
    28
  ],
  [
    "凍",
    "freq",
    28
  ],
  [
    "幼",
    "freq",
    28
  ],
  [
    "稚",
    "freq",
    28
  ],
  [
    "処",
    "freq",
    28
  ],
  [
    "博",
    "freq",
    28
  ],
  [
    "清",
    "freq",
    28
  ],
  [
    "潔",
    "freq",
    28
  ],
  [
    "録",
    "freq",
    28
  ],
  [
    "隊",
    "freq",
    28
  ],
  [
    "修",
    "freq",
    28
  ],
  [
    "券",
    "freq",
    28
  ],
  [
    "婦",
    "freq",
    28
  ],
  [
    "奇",
    "freq",
    28
  ],
  [
    "妙",
    "freq",
    28
  ],
  [
    "麗",
    "freq",
    28
  ],
  [
    "微",
    "freq",
    28
  ],
  [
    "益",
    "freq",
    28
  ],
  [
    "移",
    "freq",
    28
  ],
  [
    "程",
    "freq",
    28
  ],
  [
    "精",
    "freq",
    28
  ],
  [
    "並",
    "freq",
    28
  ],
  [
    "憲",
    "freq",
    28
  ],
  [
    "衆",
    "freq",
    28
  ],
  [
    "傘",
    "freq",
    28
  ],
  [
    "浜",
    "freq",
    28
  ],
  [
    "撃",
    "freq",
    28
  ],
  [
    "攻",
    "freq",
    28
  ],
  [
    "綺",
    "freq",
    28
  ],
  [
    "沼",
    "freq",
    28
  ],
  [
    "揃",
    "freq",
    28
  ],
  [
    "監",
    "freq",
    29
  ],
  [
    "杯",
    "freq",
    29
  ],
  [
    "乾",
    "freq",
    29
  ],
  [
    "催",
    "freq",
    29
  ],
  [
    "促",
    "freq",
    29
  ],
  [
    "欧",
    "freq",
    29
  ],
  [
    "江",
    "freq",
    29
  ],
  [
    "請",
    "freq",
    29
  ],
  [
    "雄",
    "freq",
    29
  ],
  [
    "韓",
    "freq",
    29
  ],
  [
    "壊",
    "freq",
    29
  ],
  [
    "診",
    "freq",
    29
  ],
  [
    "閣",
    "freq",
    29
  ],
  [
    "僚",
    "freq",
    29
  ],
  [
    "積",
    "freq",
    29
  ],
  [
    "督",
    "freq",
    29
  ],
  [
    "臣",
    "freq",
    29
  ],
  [
    "略",
    "freq",
    29
  ],
  [
    "航",
    "freq",
    29
  ],
  [
    "寄",
    "freq",
    29
  ],
  [
    "板",
    "freq",
    29
  ],
  [
    "街",
    "freq",
    29
  ],
  [
    "宗",
    "freq",
    29
  ],
  [
    "緊",
    "freq",
    29
  ],
  [
    "娘",
    "freq",
    29
  ],
  [
    "宴",
    "freq",
    29
  ],
  [
    "怖",
    "freq",
    29
  ],
  [
    "恐",
    "freq",
    29
  ],
  [
    "添",
    "freq",
    29
  ],
  [
    "猛",
    "freq",
    29
  ],
  [
    "烈",
    "freq",
    29
  ],
  [
    "索",
    "freq",
    29
  ],
  [
    "詰",
    "freq",
    29
  ],
  [
    "勧",
    "freq",
    29
  ],
  [
    "玄",
    "freq",
    29
  ],
  [
    "魅",
    "freq",
    30
  ],
  [
    "渇",
    "freq",
    30
  ],
  [
    "系",
    "freq",
    30
  ],
  [
    "婚",
    "freq",
    30
  ],
  [
    "遊",
    "freq",
    30
  ],
  [
    "旗",
    "freq",
    30
  ],
  [
    "照",
    "freq",
    30
  ],
  [
    "快",
    "freq",
    30
  ],
  [
    "版",
    "freq",
    30
  ],
  [
    "貧",
    "freq",
    30
  ],
  [
    "乏",
    "freq",
    30
  ],
  [
    "適",
    "freq",
    30
  ],
  [
    "預",
    "freq",
    30
  ],
  [
    "延",
    "freq",
    30
  ],
  [
    "翌",
    "freq",
    30
  ],
  [
    "覧",
    "freq",
    30
  ],
  [
    "懐",
    "freq",
    30
  ],
  [
    "押",
    "freq",
    30
  ],
  [
    "更",
    "freq",
    30
  ],
  [
    "枕",
    "freq",
    30
  ],
  [
    "浮",
    "freq",
    30
  ],
  [
    "漏",
    "freq",
    30
  ],
  [
    "符",
    "freq",
    30
  ],
  [
    "購",
    "freq",
    30
  ],
  [
    "越",
    "freq",
    30
  ],
  [
    "飾",
    "freq",
    30
  ],
  [
    "騒",
    "freq",
    30
  ],
  [
    "背",
    "freq",
    30
  ],
  [
    "撮",
    "freq",
    30
  ],
  [
    "盗",
    "freq",
    30
  ],
  [
    "匂",
    "freq",
    30
  ],
  [
    "濡",
    "freq",
    30
  ],
  [
    "柵",
    "freq",
    30
  ],
  [
    "妨",
    "freq",
    31
  ],
  [
    "離",
    "freq",
    31
  ],
  [
    "融",
    "freq",
    31
  ],
  [
    "編",
    "freq",
    31
  ],
  [
    "華",
    "freq",
    31
  ],
  [
    "既",
    "freq",
    31
  ],
  [
    "普",
    "freq",
    31
  ],
  [
    "豪",
    "freq",
    31
  ],
  [
    "鑑",
    "freq",
    31
  ],
  [
    "除",
    "freq",
    31
  ],
  [
    "尋",
    "freq",
    31
  ],
  [
    "幾",
    "freq",
    31
  ],
  [
    "廊",
    "freq",
    31
  ],
  [
    "掃",
    "freq",
    31
  ],
  [
    "泥",
    "freq",
    31
  ],
  [
    "棒",
    "freq",
    31
  ],
  [
    "驚",
    "freq",
    31
  ],
  [
    "嘆",
    "freq",
    31
  ],
  [
    "倉",
    "freq",
    31
  ],
  [
    "孫",
    "freq",
    31
  ],
  [
    "巣",
    "freq",
    31
  ],
  [
    "帯",
    "freq",
    31
  ],
  [
    "径",
    "freq",
    31
  ],
  [
    "救",
    "freq",
    31
  ],
  [
    "散",
    "freq",
    31
  ],
  [
    "粉",
    "freq",
    31
  ],
  [
    "脈",
    "freq",
    31
  ],
  [
    "菜",
    "freq",
    31
  ],
  [
    "貨",
    "freq",
    31
  ],
  [
    "陸",
    "freq",
    31
  ],
  [
    "似",
    "freq",
    31
  ],
  [
    "均",
    "freq",
    31
  ],
  [
    "墓",
    "freq",
    31
  ],
  [
    "富",
    "freq",
    31
  ],
  [
    "徳",
    "freq",
    31
  ],
  [
    "探",
    "freq",
    31
  ],
  [
    "偵",
    "freq",
    31
  ],
  [
    "久",
    "freq",
    32
  ],
  [
    "序",
    "freq",
    32
  ],
  [
    "迎",
    "freq",
    32
  ],
  [
    "志",
    "freq",
    32
  ],
  [
    "恩",
    "freq",
    32
  ],
  [
    "採",
    "freq",
    32
  ],
  [
    "桜",
    "freq",
    32
  ],
  [
    "永",
    "freq",
    32
  ],
  [
    "液",
    "freq",
    32
  ],
  [
    "眼",
    "freq",
    32
  ],
  [
    "祖",
    "freq",
    32
  ],
  [
    "績",
    "freq",
    32
  ],
  [
    "興",
    "freq",
    32
  ],
  [
    "衛",
    "freq",
    32
  ],
  [
    "複",
    "freq",
    32
  ],
  [
    "雑",
    "freq",
    32
  ],
  [
    "賛",
    "freq",
    32
  ],
  [
    "酸",
    "freq",
    32
  ],
  [
    "銭",
    "freq",
    32
  ],
  [
    "飼",
    "freq",
    32
  ],
  [
    "傷",
    "freq",
    32
  ],
  [
    "党",
    "freq",
    32
  ],
  [
    "卵",
    "freq",
    32
  ],
  [
    "厳",
    "freq",
    32
  ],
  [
    "捨",
    "freq",
    32
  ],
  [
    "込",
    "freq",
    32
  ],
  [
    "密",
    "freq",
    32
  ],
  [
    "汚",
    "freq",
    32
  ],
  [
    "欲",
    "freq",
    32
  ],
  [
    "暖",
    "freq",
    32
  ],
  [
    "机",
    "freq",
    32
  ],
  [
    "秘",
    "freq",
    32
  ],
  [
    "訳",
    "freq",
    32
  ],
  [
    "染",
    "freq",
    32
  ],
  [
    "簡",
    "freq",
    33
  ],
  [
    "閉",
    "freq",
    33
  ],
  [
    "誌",
    "freq",
    33
  ],
  [
    "窓",
    "freq",
    33
  ],
  [
    "否",
    "freq",
    33
  ],
  [
    "筋",
    "freq",
    33
  ],
  [
    "垂",
    "freq",
    33
  ],
  [
    "宣",
    "freq",
    33
  ],
  [
    "尊",
    "freq",
    33
  ],
  [
    "忠",
    "freq",
    33
  ],
  [
    "拡",
    "freq",
    33
  ],
  [
    "操",
    "freq",
    33
  ],
  [
    "敬",
    "freq",
    33
  ],
  [
    "暮",
    "freq",
    33
  ],
  [
    "灰",
    "freq",
    33
  ],
  [
    "熟",
    "freq",
    33
  ],
  [
    "異",
    "freq",
    33
  ],
  [
    "皇",
    "freq",
    33
  ],
  [
    "盛",
    "freq",
    33
  ],
  [
    "砂",
    "freq",
    33
  ],
  [
    "糖",
    "freq",
    33
  ],
  [
    "納",
    "freq",
    33
  ],
  [
    "肺",
    "freq",
    33
  ],
  [
    "著",
    "freq",
    33
  ],
  [
    "蒸",
    "freq",
    33
  ],
  [
    "蔵",
    "freq",
    33
  ],
  [
    "装",
    "freq",
    33
  ],
  [
    "裏",
    "freq",
    33
  ],
  [
    "諸",
    "freq",
    33
  ],
  [
    "賃",
    "freq",
    33
  ],
  [
    "噂",
    "freq",
    33
  ],
  [
    "股",
    "freq",
    33
  ],
  [
    "屁",
    "freq",
    33
  ],
  [
    "誤",
    "freq",
    34
  ],
  [
    "臓",
    "freq",
    34
  ],
  [
    "貴",
    "freq",
    34
  ],
  [
    "丼",
    "freq",
    34
  ],
  [
    "吐",
    "freq",
    34
  ],
  [
    "奴",
    "freq",
    34
  ],
  [
    "隷",
    "freq",
    34
  ],
  [
    "縮",
    "freq",
    34
  ],
  [
    "純",
    "freq",
    34
  ],
  [
    "縦",
    "freq",
    34
  ],
  [
    "粋",
    "freq",
    34
  ],
  [
    "聖",
    "freq",
    34
  ],
  [
    "磁",
    "freq",
    34
  ],
  [
    "紅",
    "freq",
    34
  ],
  [
    "射",
    "freq",
    34
  ],
  [
    "幕",
    "freq",
    34
  ],
  [
    "拝",
    "freq",
    34
  ],
  [
    "薦",
    "freq",
    34
  ],
  [
    "推",
    "freq",
    34
  ],
  [
    "揮",
    "freq",
    34
  ],
  [
    "沿",
    "freq",
    34
  ],
  [
    "源",
    "freq",
    34
  ],
  [
    "勤",
    "freq",
    34
  ],
  [
    "歓",
    "freq",
    34
  ],
  [
    "承",
    "freq",
    34
  ],
  [
    "損",
    "freq",
    34
  ],
  [
    "枝",
    "freq",
    34
  ],
  [
    "爪",
    "freq",
    34
  ],
  [
    "豆",
    "freq",
    34
  ],
  [
    "刻",
    "freq",
    34
  ],
  [
    "腐",
    "freq",
    34
  ],
  [
    "痩",
    "freq",
    34
  ],
  [
    "咳",
    "freq",
    34
  ],
  [
    "漠",
    "freq",
    35
  ],
  [
    "遅",
    "freq",
    35
  ],
  [
    "彫",
    "freq",
    35
  ],
  [
    "測",
    "freq",
    35
  ],
  [
    "破",
    "freq",
    35
  ],
  [
    "舎",
    "freq",
    35
  ],
  [
    "講",
    "freq",
    35
  ],
  [
    "滞",
    "freq",
    35
  ],
  [
    "紹",
    "freq",
    35
  ],
  [
    "介",
    "freq",
    35
  ],
  [
    "己",
    "freq",
    35
  ],
  [
    "厄",
    "freq",
    35
  ],
  [
    "亀",
    "freq",
    35
  ],
  [
    "互",
    "freq",
    35
  ],
  [
    "剣",
    "freq",
    35
  ],
  [
    "寿",
    "freq",
    35
  ],
  [
    "恥",
    "freq",
    35
  ],
  [
    "杉",
    "freq",
    35
  ],
  [
    "汁",
    "freq",
    35
  ],
  [
    "噌",
    "freq",
    35
  ],
  [
    "炎",
    "freq",
    35
  ],
  [
    "為",
    "freq",
    35
  ],
  [
    "熊",
    "freq",
    35
  ],
  [
    "獄",
    "freq",
    35
  ],
  [
    "酔",
    "freq",
    35
  ],
  [
    "酢",
    "freq",
    35
  ],
  [
    "鍋",
    "freq",
    35
  ],
  [
    "湖",
    "freq",
    35
  ],
  [
    "銅",
    "freq",
    35
  ],
  [
    "油",
    "freq",
    35
  ],
  [
    "醤",
    "freq",
    35
  ],
  [
    "軒",
    "freq",
    35
  ],
  [
    "喋",
    "freq",
    35
  ],
  [
    "戚",
    "freq",
    35
  ],
  [
    "旧",
    "freq",
    36
  ],
  [
    "姓",
    "freq",
    36
  ],
  [
    "貿",
    "freq",
    36
  ],
  [
    "将",
    "freq",
    36
  ],
  [
    "盟",
    "freq",
    36
  ],
  [
    "遺",
    "freq",
    36
  ],
  [
    "伸",
    "freq",
    36
  ],
  [
    "債",
    "freq",
    36
  ],
  [
    "及",
    "freq",
    36
  ],
  [
    "奈",
    "freq",
    36
  ],
  [
    "幅",
    "freq",
    36
  ],
  [
    "廃",
    "freq",
    36
  ],
  [
    "甘",
    "freq",
    36
  ],
  [
    "換",
    "freq",
    36
  ],
  [
    "摘",
    "freq",
    36
  ],
  [
    "核",
    "freq",
    36
  ],
  [
    "沖",
    "freq",
    36
  ],
  [
    "縄",
    "freq",
    36
  ],
  [
    "津",
    "freq",
    36
  ],
  [
    "献",
    "freq",
    36
  ],
  [
    "療",
    "freq",
    36
  ],
  [
    "継",
    "freq",
    36
  ],
  [
    "維",
    "freq",
    36
  ],
  [
    "舞",
    "freq",
    36
  ],
  [
    "伎",
    "freq",
    36
  ],
  [
    "踏",
    "freq",
    36
  ],
  [
    "般",
    "freq",
    36
  ],
  [
    "頼",
    "freq",
    36
  ],
  [
    "依",
    "freq",
    36
  ],
  [
    "鹿",
    "freq",
    36
  ],
  [
    "諾",
    "freq",
    36
  ],
  [
    "牙",
    "freq",
    36
  ],
  [
    "超",
    "freq",
    36
  ],
  [
    "叔",
    "freq",
    36
  ],
  [
    "鮭",
    "freq",
    36
  ],
  [
    "炒",
    "freq",
    36
  ],
  [
    "跳",
    "freq",
    37
  ],
  [
    "昭",
    "freq",
    37
  ],
  [
    "漁",
    "freq",
    37
  ],
  [
    "償",
    "freq",
    37
  ],
  [
    "刑",
    "freq",
    37
  ],
  [
    "募",
    "freq",
    37
  ],
  [
    "執",
    "freq",
    37
  ],
  [
    "塁",
    "freq",
    37
  ],
  [
    "崩",
    "freq",
    37
  ],
  [
    "患",
    "freq",
    37
  ],
  [
    "戻",
    "freq",
    37
  ],
  [
    "抗",
    "freq",
    37
  ],
  [
    "抵",
    "freq",
    37
  ],
  [
    "旬",
    "freq",
    37
  ],
  [
    "湾",
    "freq",
    37
  ],
  [
    "爆",
    "freq",
    37
  ],
  [
    "弾",
    "freq",
    37
  ],
  [
    "聴",
    "freq",
    37
  ],
  [
    "跡",
    "freq",
    37
  ],
  [
    "遣",
    "freq",
    37
  ],
  [
    "闘",
    "freq",
    37
  ],
  [
    "陣",
    "freq",
    37
  ],
  [
    "香",
    "freq",
    37
  ],
  [
    "兆",
    "freq",
    37
  ],
  [
    "臨",
    "freq",
    37
  ],
  [
    "削",
    "freq",
    37
  ],
  [
    "契",
    "freq",
    37
  ],
  [
    "恵",
    "freq",
    37
  ],
  [
    "抱",
    "freq",
    37
  ],
  [
    "掲",
    "freq",
    37
  ],
  [
    "狙",
    "freq",
    37
  ],
  [
    "葬",
    "freq",
    37
  ],
  [
    "串",
    "freq",
    37
  ],
  [
    "眉",
    "freq",
    37
  ],
  [
    "需",
    "freq",
    38
  ],
  [
    "齢",
    "freq",
    38
  ],
  [
    "宜",
    "freq",
    38
  ],
  [
    "繰",
    "freq",
    38
  ],
  [
    "避",
    "freq",
    38
  ],
  [
    "妊",
    "freq",
    38
  ],
  [
    "娠",
    "freq",
    38
  ],
  [
    "致",
    "freq",
    38
  ],
  [
    "刊",
    "freq",
    38
  ],
  [
    "奏",
    "freq",
    38
  ],
  [
    "伴",
    "freq",
    38
  ],
  [
    "併",
    "freq",
    38
  ],
  [
    "傾",
    "freq",
    38
  ],
  [
    "却",
    "freq",
    38
  ],
  [
    "奥",
    "freq",
    38
  ],
  [
    "慮",
    "freq",
    38
  ],
  [
    "懸",
    "freq",
    38
  ],
  [
    "房",
    "freq",
    38
  ],
  [
    "扱",
    "freq",
    38
  ],
  [
    "抑",
    "freq",
    38
  ],
  [
    "択",
    "freq",
    38
  ],
  [
    "描",
    "freq",
    38
  ],
  [
    "盤",
    "freq",
    38
  ],
  [
    "称",
    "freq",
    38
  ],
  [
    "緒",
    "freq",
    38
  ],
  [
    "緩",
    "freq",
    38
  ],
  [
    "託",
    "freq",
    38
  ],
  [
    "賄",
    "freq",
    38
  ],
  [
    "賂",
    "freq",
    38
  ],
  [
    "贈",
    "freq",
    38
  ],
  [
    "逃",
    "freq",
    38
  ],
  [
    "還",
    "freq",
    38
  ],
  [
    "膝",
    "freq",
    38
  ],
  [
    "噛",
    "freq",
    38
  ],
  [
    "璧",
    "freq",
    38
  ],
  [
    "虚",
    "freq",
    39
  ],
  [
    "邦",
    "freq",
    39
  ],
  [
    "鈴",
    "freq",
    39
  ],
  [
    "阜",
    "freq",
    39
  ],
  [
    "岐",
    "freq",
    39
  ],
  [
    "隆",
    "freq",
    39
  ],
  [
    "雇",
    "freq",
    39
  ],
  [
    "控",
    "freq",
    39
  ],
  [
    "壁",
    "freq",
    39
  ],
  [
    "棋",
    "freq",
    39
  ],
  [
    "渋",
    "freq",
    39
  ],
  [
    "片",
    "freq",
    39
  ],
  [
    "群",
    "freq",
    39
  ],
  [
    "仙",
    "freq",
    39
  ],
  [
    "充",
    "freq",
    39
  ],
  [
    "免",
    "freq",
    39
  ],
  [
    "圏",
    "freq",
    39
  ],
  [
    "埼",
    "freq",
    39
  ],
  [
    "奪",
    "freq",
    39
  ],
  [
    "御",
    "freq",
    39
  ],
  [
    "慎",
    "freq",
    39
  ],
  [
    "拒",
    "freq",
    39
  ],
  [
    "枠",
    "freq",
    39
  ],
  [
    "甲",
    "freq",
    39
  ],
  [
    "斐",
    "freq",
    39
  ],
  [
    "祉",
    "freq",
    39
  ],
  [
    "稲",
    "freq",
    39
  ],
  [
    "譲",
    "freq",
    39
  ],
  [
    "謙",
    "freq",
    39
  ],
  [
    "躍",
    "freq",
    39
  ],
  [
    "銃",
    "freq",
    39
  ],
  [
    "項",
    "freq",
    39
  ],
  [
    "鋼",
    "freq",
    39
  ],
  [
    "囚",
    "freq",
    39
  ],
  [
    "宛",
    "freq",
    39
  ],
  [
    "顧",
    "freq",
    40
  ],
  [
    "駐",
    "freq",
    40
  ],
  [
    "駆",
    "freq",
    40
  ],
  [
    "柱",
    "freq",
    40
  ],
  [
    "唱",
    "freq",
    40
  ],
  [
    "孝",
    "freq",
    40
  ],
  [
    "俊",
    "freq",
    40
  ],
  [
    "兼",
    "freq",
    40
  ],
  [
    "剤",
    "freq",
    40
  ],
  [
    "吹",
    "freq",
    40
  ],
  [
    "堀",
    "freq",
    40
  ],
  [
    "巡",
    "freq",
    40
  ],
  [
    "戒",
    "freq",
    40
  ],
  [
    "排",
    "freq",
    40
  ],
  [
    "携",
    "freq",
    40
  ],
  [
    "敏",
    "freq",
    40
  ],
  [
    "鋭",
    "freq",
    40
  ],
  [
    "敷",
    "freq",
    40
  ],
  [
    "殿",
    "freq",
    40
  ],
  [
    "犠",
    "freq",
    40
  ],
  [
    "獲",
    "freq",
    40
  ],
  [
    "茂",
    "freq",
    40
  ],
  [
    "繁",
    "freq",
    40
  ],
  [
    "頻",
    "freq",
    40
  ],
  [
    "殖",
    "freq",
    40
  ],
  [
    "薄",
    "freq",
    40
  ],
  [
    "衝",
    "freq",
    40
  ],
  [
    "誉",
    "freq",
    40
  ],
  [
    "褒",
    "freq",
    40
  ],
  [
    "透",
    "freq",
    40
  ],
  [
    "隣",
    "freq",
    40
  ],
  [
    "雅",
    "freq",
    40
  ],
  [
    "嬉",
    "freq",
    40
  ],
  [
    "妖",
    "freq",
    40
  ],
  [
    "麺",
    "freq",
    40
  ],
  [
    "拉",
    "freq",
    40
  ],
  [
    "遜",
    "freq",
    41
  ],
  [
    "伺",
    "freq",
    41
  ],
  [
    "徹",
    "freq",
    41
  ],
  [
    "瀬",
    "freq",
    41
  ],
  [
    "撤",
    "freq",
    41
  ],
  [
    "措",
    "freq",
    41
  ],
  [
    "拠",
    "freq",
    41
  ],
  [
    "儀",
    "freq",
    41
  ],
  [
    "樹",
    "freq",
    41
  ],
  [
    "棄",
    "freq",
    41
  ],
  [
    "虎",
    "freq",
    41
  ],
  [
    "蛍",
    "freq",
    41
  ],
  [
    "蜂",
    "freq",
    41
  ],
  [
    "酎",
    "freq",
    41
  ],
  [
    "蜜",
    "freq",
    41
  ],
  [
    "墟",
    "freq",
    41
  ],
  [
    "艦",
    "freq",
    41
  ],
  [
    "潜",
    "freq",
    41
  ],
  [
    "拳",
    "freq",
    41
  ],
  [
    "炭",
    "freq",
    41
  ],
  [
    "畑",
    "freq",
    41
  ],
  [
    "包",
    "freq",
    41
  ],
  [
    "衣",
    "freq",
    41
  ],
  [
    "仁",
    "freq",
    41
  ],
  [
    "鉱",
    "freq",
    41
  ],
  [
    "至",
    "freq",
    41
  ],
  [
    "誠",
    "freq",
    41
  ],
  [
    "郷",
    "freq",
    41
  ],
  [
    "侵",
    "freq",
    41
  ],
  [
    "偽",
    "freq",
    41
  ],
  [
    "嘘",
    "freq",
    41
  ],
  [
    "凄",
    "freq",
    41
  ],
  [
    "喧",
    "freq",
    41
  ],
  [
    "嘩",
    "freq",
    41
  ],
  [
    "克",
    "freq",
    42
  ],
  [
    "到",
    "freq",
    42
  ],
  [
    "双",
    "freq",
    42
  ],
  [
    "哲",
    "freq",
    42
  ],
  [
    "喪",
    "freq",
    42
  ],
  [
    "堅",
    "freq",
    42
  ],
  [
    "床",
    "freq",
    42
  ],
  [
    "括",
    "freq",
    42
  ],
  [
    "弧",
    "freq",
    42
  ],
  [
    "挑",
    "freq",
    42
  ],
  [
    "掘",
    "freq",
    42
  ],
  [
    "揚",
    "freq",
    42
  ],
  [
    "握",
    "freq",
    42
  ],
  [
    "揺",
    "freq",
    42
  ],
  [
    "斎",
    "freq",
    42
  ],
  [
    "暫",
    "freq",
    42
  ],
  [
    "析",
    "freq",
    42
  ],
  [
    "枢",
    "freq",
    42
  ],
  [
    "軸",
    "freq",
    42
  ],
  [
    "柄",
    "freq",
    42
  ],
  [
    "泊",
    "freq",
    42
  ],
  [
    "滑",
    "freq",
    42
  ],
  [
    "潟",
    "freq",
    42
  ],
  [
    "焦",
    "freq",
    42
  ],
  [
    "範",
    "freq",
    42
  ],
  [
    "紛",
    "freq",
    42
  ],
  [
    "糾",
    "freq",
    42
  ],
  [
    "綱",
    "freq",
    42
  ],
  [
    "網",
    "freq",
    42
  ],
  [
    "肝",
    "freq",
    42
  ],
  [
    "芝",
    "freq",
    42
  ],
  [
    "荒",
    "freq",
    42
  ],
  [
    "袋",
    "freq",
    42
  ],
  [
    "餅",
    "freq",
    42
  ],
  [
    "珍",
    "freq",
    43
  ],
  [
    "裂",
    "freq",
    43
  ],
  [
    "襲",
    "freq",
    43
  ],
  [
    "貢",
    "freq",
    43
  ],
  [
    "趣",
    "freq",
    43
  ],
  [
    "距",
    "freq",
    43
  ],
  [
    "籍",
    "freq",
    43
  ],
  [
    "露",
    "freq",
    43
  ],
  [
    "牧",
    "freq",
    43
  ],
  [
    "刷",
    "freq",
    43
  ],
  [
    "朗",
    "freq",
    43
  ],
  [
    "潮",
    "freq",
    43
  ],
  [
    "即",
    "freq",
    43
  ],
  [
    "垣",
    "freq",
    43
  ],
  [
    "威",
    "freq",
    43
  ],
  [
    "封",
    "freq",
    43
  ],
  [
    "筒",
    "freq",
    43
  ],
  [
    "慰",
    "freq",
    43
  ],
  [
    "懇",
    "freq",
    43
  ],
  [
    "懲",
    "freq",
    43
  ],
  [
    "摩",
    "freq",
    43
  ],
  [
    "擦",
    "freq",
    43
  ],
  [
    "撲",
    "freq",
    43
  ],
  [
    "斉",
    "freq",
    43
  ],
  [
    "旨",
    "freq",
    43
  ],
  [
    "柔",
    "freq",
    43
  ],
  [
    "沈",
    "freq",
    43
  ],
  [
    "泰",
    "freq",
    43
  ],
  [
    "滅",
    "freq",
    43
  ],
  [
    "滋",
    "freq",
    43
  ],
  [
    "炉",
    "freq",
    43
  ],
  [
    "琴",
    "freq",
    43
  ],
  [
    "晶",
    "freq",
    43
  ],
  [
    "寸",
    "freq",
    44
  ],
  [
    "竜",
    "freq",
    44
  ],
  [
    "縁",
    "freq",
    44
  ],
  [
    "翼",
    "freq",
    44
  ],
  [
    "吉",
    "freq",
    44
  ],
  [
    "刃",
    "freq",
    44
  ],
  [
    "忍",
    "freq",
    44
  ],
  [
    "桃",
    "freq",
    44
  ],
  [
    "辛",
    "freq",
    44
  ],
  [
    "謎",
    "freq",
    44
  ],
  [
    "侍",
    "freq",
    44
  ],
  [
    "叱",
    "freq",
    44
  ],
  [
    "娯",
    "freq",
    44
  ],
  [
    "斗",
    "freq",
    44
  ],
  [
    "朱",
    "freq",
    44
  ],
  [
    "丘",
    "freq",
    44
  ],
  [
    "梨",
    "freq",
    44
  ],
  [
    "叫",
    "freq",
    44
  ],
  [
    "釣",
    "freq",
    44
  ],
  [
    "髪",
    "freq",
    44
  ],
  [
    "嵐",
    "freq",
    44
  ],
  [
    "笠",
    "freq",
    44
  ],
  [
    "涙",
    "freq",
    44
  ],
  [
    "姫",
    "freq",
    44
  ],
  [
    "粒",
    "freq",
    44
  ],
  [
    "砲",
    "freq",
    44
  ],
  [
    "雷",
    "freq",
    44
  ],
  [
    "芽",
    "freq",
    44
  ],
  [
    "塔",
    "freq",
    44
  ],
  [
    "狐",
    "freq",
    44
  ],
  [
    "挨",
    "freq",
    44
  ],
  [
    "拶",
    "freq",
    44
  ],
  [
    "肢",
    "freq",
    44
  ],
  [
    "岳",
    "freq",
    45
  ],
  [
    "澄",
    "freq",
    45
  ],
  [
    "矛",
    "freq",
    45
  ],
  [
    "肌",
    "freq",
    45
  ],
  [
    "舟",
    "freq",
    45
  ],
  [
    "鐘",
    "freq",
    45
  ],
  [
    "凶",
    "freq",
    45
  ],
  [
    "塊",
    "freq",
    45
  ],
  [
    "狩",
    "freq",
    45
  ],
  [
    "頃",
    "freq",
    45
  ],
  [
    "魂",
    "freq",
    45
  ],
  [
    "脚",
    "freq",
    45
  ],
  [
    "也",
    "freq",
    45
  ],
  [
    "井",
    "freq",
    45
  ],
  [
    "呪",
    "freq",
    45
  ],
  [
    "嬢",
    "freq",
    45
  ],
  [
    "暦",
    "freq",
    45
  ],
  [
    "曇",
    "freq",
    45
  ],
  [
    "眺",
    "freq",
    45
  ],
  [
    "裸",
    "freq",
    45
  ],
  [
    "賭",
    "freq",
    45
  ],
  [
    "疲",
    "freq",
    45
  ],
  [
    "塾",
    "freq",
    45
  ],
  [
    "卓",
    "freq",
    45
  ],
  [
    "磨",
    "freq",
    45
  ],
  [
    "菌",
    "freq",
    45
  ],
  [
    "陰",
    "freq",
    45
  ],
  [
    "霊",
    "freq",
    45
  ],
  [
    "湿",
    "freq",
    45
  ],
  [
    "硬",
    "freq",
    45
  ],
  [
    "稼",
    "freq",
    45
  ],
  [
    "嫁",
    "freq",
    45
  ],
  [
    "溝",
    "freq",
    45
  ],
  [
    "滝",
    "freq",
    45
  ],
  [
    "狂",
    "freq",
    45
  ],
  [
    "翔",
    "freq",
    45
  ],
  [
    "墨",
    "freq",
    46
  ],
  [
    "鳩",
    "freq",
    46
  ],
  [
    "穏",
    "freq",
    46
  ],
  [
    "鈍",
    "freq",
    46
  ],
  [
    "魔",
    "freq",
    46
  ],
  [
    "寮",
    "freq",
    46
  ],
  [
    "盆",
    "freq",
    46
  ],
  [
    "棟",
    "freq",
    46
  ],
  [
    "吾",
    "freq",
    46
  ],
  [
    "斬",
    "freq",
    46
  ],
  [
    "寧",
    "freq",
    46
  ],
  [
    "椅",
    "freq",
    46
  ],
  [
    "歳",
    "freq",
    46
  ],
  [
    "猿",
    "freq",
    46
  ],
  [
    "瞳",
    "freq",
    46
  ],
  [
    "鍵",
    "freq",
    46
  ],
  [
    "零",
    "freq",
    46
  ],
  [
    "碁",
    "freq",
    46
  ],
  [
    "租",
    "freq",
    46
  ],
  [
    "幽",
    "freq",
    46
  ],
  [
    "泡",
    "freq",
    46
  ],
  [
    "癖",
    "freq",
    46
  ],
  [
    "鍛",
    "freq",
    46
  ],
  [
    "錬",
    "freq",
    46
  ],
  [
    "穂",
    "freq",
    46
  ],
  [
    "帝",
    "freq",
    46
  ],
  [
    "瞬",
    "freq",
    46
  ],
  [
    "菊",
    "freq",
    46
  ],
  [
    "誇",
    "freq",
    46
  ],
  [
    "庄",
    "freq",
    46
  ],
  [
    "阻",
    "freq",
    46
  ],
  [
    "黙",
    "freq",
    46
  ],
  [
    "俵",
    "freq",
    46
  ],
  [
    "綿",
    "freq",
    46
  ],
  [
    "架",
    "freq",
    46
  ],
  [
    "孔",
    "freq",
    46
  ],
  [
    "砕",
    "freq",
    47
  ],
  [
    "粘",
    "freq",
    47
  ],
  [
    "粧",
    "freq",
    47
  ],
  [
    "欺",
    "freq",
    47
  ],
  [
    "詐",
    "freq",
    47
  ],
  [
    "霧",
    "freq",
    47
  ],
  [
    "柳",
    "freq",
    47
  ],
  [
    "伊",
    "freq",
    47
  ],
  [
    "佐",
    "freq",
    47
  ],
  [
    "尺",
    "freq",
    47
  ],
  [
    "哀",
    "freq",
    47
  ],
  [
    "唇",
    "freq",
    47
  ],
  [
    "塀",
    "freq",
    47
  ],
  [
    "墜",
    "freq",
    47
  ],
  [
    "如",
    "freq",
    47
  ],
  [
    "婆",
    "freq",
    47
  ],
  [
    "崖",
    "freq",
    47
  ],
  [
    "帽",
    "freq",
    47
  ],
  [
    "幣",
    "freq",
    47
  ],
  [
    "恨",
    "freq",
    47
  ],
  [
    "憎",
    "freq",
    47
  ],
  [
    "憩",
    "freq",
    47
  ],
  [
    "扇",
    "freq",
    47
  ],
  [
    "扉",
    "freq",
    47
  ],
  [
    "挿",
    "freq",
    47
  ],
  [
    "掌",
    "freq",
    47
  ],
  [
    "滴",
    "freq",
    47
  ],
  [
    "炊",
    "freq",
    47
  ],
  [
    "爽",
    "freq",
    47
  ],
  [
    "畳",
    "freq",
    47
  ],
  [
    "瞭",
    "freq",
    47
  ],
  [
    "箸",
    "freq",
    47
  ],
  [
    "胴",
    "freq",
    47
  ],
  [
    "芯",
    "freq",
    47
  ],
  [
    "虹",
    "freq",
    47
  ],
  [
    "巾",
    "freq",
    47
  ],
  [
    "煎",
    "freq",
    47
  ],
  [
    "帳",
    "freq",
    48
  ],
  [
    "蚊",
    "freq",
    48
  ],
  [
    "蛇",
    "freq",
    48
  ],
  [
    "貼",
    "freq",
    48
  ],
  [
    "辱",
    "freq",
    48
  ],
  [
    "鉢",
    "freq",
    48
  ],
  [
    "闇",
    "freq",
    48
  ],
  [
    "隙",
    "freq",
    48
  ],
  [
    "霜",
    "freq",
    48
  ],
  [
    "飢",
    "freq",
    48
  ],
  [
    "餓",
    "freq",
    48
  ],
  [
    "畜",
    "freq",
    48
  ],
  [
    "迅",
    "freq",
    48
  ],
  [
    "騎",
    "freq",
    48
  ],
  [
    "蓄",
    "freq",
    48
  ],
  [
    "尽",
    "freq",
    48
  ],
  [
    "彩",
    "freq",
    48
  ],
  [
    "憶",
    "freq",
    48
  ],
  [
    "溶",
    "freq",
    48
  ],
  [
    "耐",
    "freq",
    48
  ],
  [
    "踊",
    "freq",
    48
  ],
  [
    "賢",
    "freq",
    48
  ],
  [
    "輝",
    "freq",
    48
  ],
  [
    "脅",
    "freq",
    48
  ],
  [
    "麻",
    "freq",
    48
  ],
  [
    "灯",
    "freq",
    48
  ],
  [
    "咲",
    "freq",
    48
  ],
  [
    "培",
    "freq",
    48
  ],
  [
    "悔",
    "freq",
    48
  ],
  [
    "脇",
    "freq",
    48
  ],
  [
    "遂",
    "freq",
    48
  ],
  [
    "班",
    "freq",
    48
  ],
  [
    "塗",
    "freq",
    48
  ],
  [
    "斜",
    "freq",
    48
  ],
  [
    "殴",
    "freq",
    48
  ],
  [
    "盾",
    "freq",
    48
  ],
  [
    "穫",
    "freq",
    48
  ],
  [
    "駒",
    "freq",
    49
  ],
  [
    "抽",
    "freq",
    49
  ],
  [
    "誓",
    "freq",
    49
  ],
  [
    "悟",
    "freq",
    49
  ],
  [
    "拓",
    "freq",
    49
  ],
  [
    "拘",
    "freq",
    49
  ],
  [
    "礎",
    "freq",
    49
  ],
  [
    "鶴",
    "freq",
    49
  ],
  [
    "刈",
    "freq",
    49
  ],
  [
    "剛",
    "freq",
    49
  ],
  [
    "唯",
    "freq",
    49
  ],
  [
    "壇",
    "freq",
    49
  ],
  [
    "尼",
    "freq",
    49
  ],
  [
    "概",
    "freq",
    49
  ],
  [
    "浸",
    "freq",
    49
  ],
  [
    "淡",
    "freq",
    49
  ],
  [
    "煮",
    "freq",
    49
  ],
  [
    "覆",
    "freq",
    49
  ],
  [
    "謀",
    "freq",
    49
  ],
  [
    "陶",
    "freq",
    49
  ],
  [
    "隔",
    "freq",
    49
  ],
  [
    "征",
    "freq",
    49
  ],
  [
    "陛",
    "freq",
    49
  ],
  [
    "俗",
    "freq",
    49
  ],
  [
    "桑",
    "freq",
    49
  ],
  [
    "潤",
    "freq",
    49
  ],
  [
    "珠",
    "freq",
    49
  ],
  [
    "衰",
    "freq",
    49
  ],
  [
    "奨",
    "freq",
    49
  ],
  [
    "劣",
    "freq",
    49
  ],
  [
    "勘",
    "freq",
    49
  ],
  [
    "妃",
    "freq",
    49
  ],
  [
    "准",
    "freq",
    49
  ],
  [
    "慌",
    "freq",
    49
  ],
  [
    "蹴",
    "freq",
    49
  ],
  [
    "峰",
    "freq",
    50
  ],
  [
    "巧",
    "freq",
    50
  ],
  [
    "邪",
    "freq",
    50
  ],
  [
    "駄",
    "freq",
    50
  ],
  [
    "唐",
    "freq",
    50
  ],
  [
    "廷",
    "freq",
    50
  ],
  [
    "鬱",
    "freq",
    50
  ],
  [
    "鰐",
    "freq",
    50
  ],
  [
    "蟹",
    "freq",
    50
  ],
  [
    "簿",
    "freq",
    50
  ],
  [
    "彰",
    "freq",
    50
  ],
  [
    "漫",
    "freq",
    50
  ],
  [
    "訂",
    "freq",
    50
  ],
  [
    "諮",
    "freq",
    50
  ],
  [
    "銘",
    "freq",
    50
  ],
  [
    "堰",
    "freq",
    50
  ],
  [
    "堤",
    "freq",
    50
  ],
  [
    "漂",
    "freq",
    50
  ],
  [
    "翻",
    "freq",
    50
  ],
  [
    "軌",
    "freq",
    50
  ],
  [
    "后",
    "freq",
    50
  ],
  [
    "奮",
    "freq",
    50
  ],
  [
    "亭",
    "freq",
    50
  ],
  [
    "仰",
    "freq",
    50
  ],
  [
    "伯",
    "freq",
    50
  ],
  [
    "偶",
    "freq",
    50
  ],
  [
    "淀",
    "freq",
    50
  ],
  [
    "墳",
    "freq",
    50
  ],
  [
    "壮",
    "freq",
    50
  ],
  [
    "把",
    "freq",
    50
  ],
  [
    "搬",
    "freq",
    50
  ],
  [
    "洞",
    "freq",
    50
  ],
  [
    "涯",
    "freq",
    50
  ],
  [
    "疫",
    "freq",
    50
  ],
  [
    "又",
    "freq",
    51
  ],
  [
    "偉",
    "freq",
    51
  ],
  [
    "頂",
    "freq",
    51
  ],
  [
    "召",
    "freq",
    51
  ],
  [
    "挟",
    "freq",
    51
  ],
  [
    "枯",
    "freq",
    51
  ],
  [
    "沸",
    "freq",
    51
  ],
  [
    "濯",
    "freq",
    51
  ],
  [
    "燥",
    "freq",
    51
  ],
  [
    "瓶",
    "freq",
    51
  ],
  [
    "耕",
    "freq",
    51
  ],
  [
    "肯",
    "freq",
    51
  ],
  [
    "脂",
    "freq",
    51
  ],
  [
    "膚",
    "freq",
    51
  ],
  [
    "軟",
    "freq",
    51
  ],
  [
    "郊",
    "freq",
    51
  ],
  [
    "隅",
    "freq",
    51
  ],
  [
    "隻",
    "freq",
    51
  ],
  [
    "邸",
    "freq",
    51
  ],
  [
    "郡",
    "freq",
    51
  ],
  [
    "釈",
    "freq",
    51
  ],
  [
    "肪",
    "freq",
    51
  ],
  [
    "喚",
    "freq",
    51
  ],
  [
    "媛",
    "freq",
    51
  ],
  [
    "貞",
    "freq",
    51
  ],
  [
    "苗",
    "freq",
    51
  ],
  [
    "渦",
    "freq",
    51
  ],
  [
    "慈",
    "freq",
    51
  ],
  [
    "襟",
    "freq",
    51
  ],
  [
    "蓮",
    "freq",
    51
  ],
  [
    "亮",
    "freq",
    51
  ],
  [
    "聡",
    "freq",
    51
  ],
  [
    "浦",
    "freq",
    51
  ],
  [
    "塚",
    "freq",
    51
  ],
  [
    "陥",
    "freq",
    52
  ],
  [
    "貫",
    "freq",
    52
  ],
  [
    "覇",
    "freq",
    52
  ],
  [
    "呂",
    "freq",
    52
  ],
  [
    "茨",
    "freq",
    52
  ],
  [
    "擁",
    "freq",
    52
  ],
  [
    "孤",
    "freq",
    52
  ],
  [
    "賠",
    "freq",
    52
  ],
  [
    "鎖",
    "freq",
    52
  ],
  [
    "噴",
    "freq",
    52
  ],
  [
    "祥",
    "freq",
    52
  ],
  [
    "牲",
    "freq",
    52
  ],
  [
    "秩",
    "freq",
    52
  ],
  [
    "唆",
    "freq",
    52
  ],
  [
    "膨",
    "freq",
    52
  ],
  [
    "芳",
    "freq",
    52
  ],
  [
    "恒",
    "freq",
    52
  ],
  [
    "倫",
    "freq",
    52
  ],
  [
    "陳",
    "freq",
    52
  ],
  [
    "須",
    "freq",
    52
  ],
  [
    "偏",
    "freq",
    52
  ],
  [
    "遇",
    "freq",
    52
  ],
  [
    "糧",
    "freq",
    52
  ],
  [
    "殊",
    "freq",
    52
  ],
  [
    "慢",
    "freq",
    52
  ],
  [
    "没",
    "freq",
    52
  ],
  [
    "怠",
    "freq",
    52
  ],
  [
    "遭",
    "freq",
    52
  ],
  [
    "惰",
    "freq",
    52
  ],
  [
    "猟",
    "freq",
    52
  ],
  [
    "乃",
    "freq",
    52
  ],
  [
    "綾",
    "freq",
    52
  ],
  [
    "颯",
    "freq",
    52
  ],
  [
    "隼",
    "freq",
    52
  ],
  [
    "輔",
    "freq",
    52
  ],
  [
    "蘇",
    "freq",
    52
  ],
  [
    "寛",
    "freq",
    53
  ],
  [
    "胞",
    "freq",
    53
  ],
  [
    "浄",
    "freq",
    53
  ],
  [
    "随",
    "freq",
    53
  ],
  [
    "稿",
    "freq",
    53
  ],
  [
    "丹",
    "freq",
    53
  ],
  [
    "壌",
    "freq",
    53
  ],
  [
    "舗",
    "freq",
    53
  ],
  [
    "騰",
    "freq",
    53
  ],
  [
    "緯",
    "freq",
    53
  ],
  [
    "艇",
    "freq",
    53
  ],
  [
    "披",
    "freq",
    53
  ],
  [
    "錦",
    "freq",
    53
  ],
  [
    "剰",
    "freq",
    53
  ],
  [
    "繊",
    "freq",
    53
  ],
  [
    "諭",
    "freq",
    53
  ],
  [
    "惨",
    "freq",
    53
  ],
  [
    "虐",
    "freq",
    53
  ],
  [
    "据",
    "freq",
    53
  ],
  [
    "徐",
    "freq",
    53
  ],
  [
    "搭",
    "freq",
    53
  ],
  [
    "蒙",
    "freq",
    53
  ],
  [
    "鯉",
    "freq",
    53
  ],
  [
    "戴",
    "freq",
    53
  ],
  [
    "緋",
    "freq",
    53
  ],
  [
    "曙",
    "freq",
    53
  ],
  [
    "胡",
    "freq",
    53
  ],
  [
    "瓜",
    "freq",
    53
  ],
  [
    "帥",
    "freq",
    53
  ],
  [
    "啓",
    "freq",
    53
  ],
  [
    "葵",
    "freq",
    53
  ],
  [
    "駿",
    "freq",
    53
  ],
  [
    "諒",
    "freq",
    53
  ],
  [
    "莉",
    "freq",
    53
  ],
  [
    "鯨",
    "freq",
    54
  ],
  [
    "荘",
    "freq",
    54
  ],
  [
    "栽",
    "freq",
    54
  ],
  [
    "拐",
    "freq",
    54
  ],
  [
    "冠",
    "freq",
    54
  ],
  [
    "勲",
    "freq",
    54
  ],
  [
    "酬",
    "freq",
    54
  ],
  [
    "紋",
    "freq",
    54
  ],
  [
    "卸",
    "freq",
    54
  ],
  [
    "欄",
    "freq",
    54
  ],
  [
    "逸",
    "freq",
    54
  ],
  [
    "尚",
    "freq",
    54
  ],
  [
    "顕",
    "freq",
    54
  ],
  [
    "粛",
    "freq",
    54
  ],
  [
    "愚",
    "freq",
    54
  ],
  [
    "庶",
    "freq",
    54
  ],
  [
    "践",
    "freq",
    54
  ],
  [
    "呈",
    "freq",
    54
  ],
  [
    "疎",
    "freq",
    54
  ],
  [
    "疾",
    "freq",
    54
  ],
  [
    "謡",
    "freq",
    54
  ],
  [
    "鎌",
    "freq",
    54
  ],
  [
    "酷",
    "freq",
    54
  ],
  [
    "叙",
    "freq",
    54
  ],
  [
    "且",
    "freq",
    54
  ],
  [
    "痴",
    "freq",
    54
  ],
  [
    "呆",
    "freq",
    54
  ],
  [
    "哺",
    "freq",
    54
  ],
  [
    "傲",
    "freq",
    54
  ],
  [
    "茎",
    "freq",
    54
  ],
  [
    "阿",
    "freq",
    54
  ],
  [
    "悠",
    "freq",
    54
  ],
  [
    "杏",
    "freq",
    54
  ],
  [
    "茜",
    "freq",
    54
  ],
  [
    "栞",
    "freq",
    54
  ],
  [
    "伏",
    "freq",
    55
  ],
  [
    "鎮",
    "freq",
    55
  ],
  [
    "奉",
    "freq",
    55
  ],
  [
    "憂",
    "freq",
    55
  ],
  [
    "朴",
    "freq",
    55
  ],
  [
    "栃",
    "freq",
    55
  ],
  [
    "惜",
    "freq",
    55
  ],
  [
    "佳",
    "freq",
    55
  ],
  [
    "悼",
    "freq",
    55
  ],
  [
    "該",
    "freq",
    55
  ],
  [
    "赴",
    "freq",
    55
  ],
  [
    "髄",
    "freq",
    55
  ],
  [
    "傍",
    "freq",
    55
  ],
  [
    "累",
    "freq",
    55
  ],
  [
    "癒",
    "freq",
    55
  ],
  [
    "郭",
    "freq",
    55
  ],
  [
    "尿",
    "freq",
    55
  ],
  [
    "賓",
    "freq",
    55
  ],
  [
    "虜",
    "freq",
    55
  ],
  [
    "憾",
    "freq",
    55
  ],
  [
    "弥",
    "freq",
    55
  ],
  [
    "粗",
    "freq",
    55
  ],
  [
    "循",
    "freq",
    55
  ],
  [
    "凝",
    "freq",
    55
  ],
  [
    "脊",
    "freq",
    55
  ],
  [
    "昌",
    "freq",
    55
  ],
  [
    "旦",
    "freq",
    55
  ],
  [
    "愉",
    "freq",
    55
  ],
  [
    "抹",
    "freq",
    55
  ],
  [
    "栓",
    "freq",
    55
  ],
  [
    "之",
    "freq",
    55
  ],
  [
    "龍",
    "freq",
    55
  ],
  [
    "遼",
    "freq",
    55
  ],
  [
    "瑛",
    "freq",
    55
  ],
  [
    "那",
    "freq",
    55
  ],
  [
    "勿",
    "freq",
    55
  ],
  [
    "拍",
    "freq",
    56
  ],
  [
    "猶",
    "freq",
    56
  ],
  [
    "宰",
    "freq",
    56
  ],
  [
    "寂",
    "freq",
    56
  ],
  [
    "縫",
    "freq",
    56
  ],
  [
    "呉",
    "freq",
    56
  ],
  [
    "凡",
    "freq",
    56
  ],
  [
    "恭",
    "freq",
    56
  ],
  [
    "錯",
    "freq",
    56
  ],
  [
    "穀",
    "freq",
    56
  ],
  [
    "陵",
    "freq",
    56
  ],
  [
    "弊",
    "freq",
    56
  ],
  [
    "舶",
    "freq",
    56
  ],
  [
    "窮",
    "freq",
    56
  ],
  [
    "悦",
    "freq",
    56
  ],
  [
    "縛",
    "freq",
    56
  ],
  [
    "轄",
    "freq",
    56
  ],
  [
    "弦",
    "freq",
    56
  ],
  [
    "窒",
    "freq",
    56
  ],
  [
    "洪",
    "freq",
    56
  ],
  [
    "摂",
    "freq",
    56
  ],
  [
    "飽",
    "freq",
    56
  ],
  [
    "紳",
    "freq",
    56
  ],
  [
    "庸",
    "freq",
    56
  ],
  [
    "靖",
    "freq",
    56
  ],
  [
    "嘉",
    "freq",
    56
  ],
  [
    "搾",
    "freq",
    56
  ],
  [
    "蝶",
    "freq",
    56
  ],
  [
    "碑",
    "freq",
    56
  ],
  [
    "尉",
    "freq",
    56
  ],
  [
    "凛",
    "freq",
    56
  ],
  [
    "匠",
    "freq",
    56
  ],
  [
    "遥",
    "freq",
    56
  ],
  [
    "智",
    "freq",
    56
  ],
  [
    "柴",
    "freq",
    56
  ],
  [
    "賊",
    "freq",
    57
  ],
  [
    "鼓",
    "freq",
    57
  ],
  [
    "旋",
    "freq",
    57
  ],
  [
    "腸",
    "freq",
    57
  ],
  [
    "槽",
    "freq",
    57
  ],
  [
    "伐",
    "freq",
    57
  ],
  [
    "漬",
    "freq",
    57
  ],
  [
    "坪",
    "freq",
    57
  ],
  [
    "紺",
    "freq",
    57
  ],
  [
    "羅",
    "freq",
    57
  ],
  [
    "峡",
    "freq",
    57
  ],
  [
    "俸",
    "freq",
    57
  ],
  [
    "醸",
    "freq",
    57
  ],
  [
    "弔",
    "freq",
    57
  ],
  [
    "乙",
    "freq",
    57
  ],
  [
    "遍",
    "freq",
    57
  ],
  [
    "衡",
    "freq",
    57
  ],
  [
    "閲",
    "freq",
    57
  ],
  [
    "喝",
    "freq",
    57
  ],
  [
    "敢",
    "freq",
    57
  ],
  [
    "膜",
    "freq",
    57
  ],
  [
    "盲",
    "freq",
    57
  ],
  [
    "胎",
    "freq",
    57
  ],
  [
    "酵",
    "freq",
    57
  ],
  [
    "堕",
    "freq",
    57
  ],
  [
    "遮",
    "freq",
    57
  ],
  [
    "烏",
    "freq",
    57
  ],
  [
    "凸",
    "freq",
    57
  ],
  [
    "凹",
    "freq",
    57
  ],
  [
    "楓",
    "freq",
    57
  ],
  [
    "哉",
    "freq",
    57
  ],
  [
    "蒼",
    "freq",
    57
  ],
  [
    "萌",
    "freq",
    57
  ],
  [
    "瑠",
    "freq",
    58
  ],
  [
    "硫",
    "freq",
    58
  ],
  [
    "赦",
    "freq",
    58
  ],
  [
    "窃",
    "freq",
    58
  ],
  [
    "慨",
    "freq",
    58
  ],
  [
    "扶",
    "freq",
    58
  ],
  [
    "戯",
    "freq",
    58
  ],
  [
    "濁",
    "freq",
    58
  ],
  [
    "奔",
    "freq",
    58
  ],
  [
    "肖",
    "freq",
    58
  ],
  [
    "朽",
    "freq",
    58
  ],
  [
    "殻",
    "freq",
    58
  ],
  [
    "享",
    "freq",
    58
  ],
  [
    "藩",
    "freq",
    58
  ],
  [
    "媒",
    "freq",
    58
  ],
  [
    "鶏",
    "freq",
    58
  ],
  [
    "嘱",
    "freq",
    58
  ],
  [
    "迭",
    "freq",
    58
  ],
  [
    "椎",
    "freq",
    58
  ],
  [
    "絹",
    "freq",
    58
  ],
  [
    "陪",
    "freq",
    58
  ],
  [
    "剖",
    "freq",
    58
  ],
  [
    "譜",
    "freq",
    58
  ],
  [
    "淑",
    "freq",
    58
  ],
  [
    "帆",
    "freq",
    58
  ],
  [
    "憤",
    "freq",
    58
  ],
  [
    "酌",
    "freq",
    58
  ],
  [
    "暁",
    "freq",
    58
  ],
  [
    "傑",
    "freq",
    58
  ],
  [
    "錠",
    "freq",
    58
  ],
  [
    "凌",
    "freq",
    58
  ],
  [
    "瑞",
    "freq",
    58
  ],
  [
    "菅",
    "freq",
    58
  ],
  [
    "璃",
    "freq",
    58
  ],
  [
    "忌",
    "freq",
    59
  ],
  [
    "遷",
    "freq",
    59
  ],
  [
    "拙",
    "freq",
    59
  ],
  [
    "峠",
    "freq",
    59
  ],
  [
    "篤",
    "freq",
    59
  ],
  [
    "雌",
    "freq",
    59
  ],
  [
    "堪",
    "freq",
    59
  ],
  [
    "吟",
    "freq",
    59
  ],
  [
    "甚",
    "freq",
    59
  ],
  [
    "崇",
    "freq",
    59
  ],
  [
    "漆",
    "freq",
    59
  ],
  [
    "岬",
    "freq",
    59
  ],
  [
    "紡",
    "freq",
    59
  ],
  [
    "礁",
    "freq",
    59
  ],
  [
    "屯",
    "freq",
    59
  ],
  [
    "姻",
    "freq",
    59
  ],
  [
    "擬",
    "freq",
    59
  ],
  [
    "睦",
    "freq",
    59
  ],
  [
    "閑",
    "freq",
    59
  ],
  [
    "曹",
    "freq",
    59
  ],
  [
    "詠",
    "freq",
    59
  ],
  [
    "卑",
    "freq",
    59
  ],
  [
    "侮",
    "freq",
    59
  ],
  [
    "鋳",
    "freq",
    59
  ],
  [
    "蔑",
    "freq",
    59
  ],
  [
    "胆",
    "freq",
    59
  ],
  [
    "浪",
    "freq",
    59
  ],
  [
    "禍",
    "freq",
    59
  ],
  [
    "酪",
    "freq",
    59
  ],
  [
    "慶",
    "freq",
    59
  ],
  [
    "亜",
    "freq",
    59
  ],
  [
    "汰",
    "freq",
    59
  ],
  [
    "梓",
    "freq",
    59
  ],
  [
    "沙",
    "freq",
    59
  ],
  [
    "款",
    "freq",
    60
  ],
  [
    "漣",
    "freq",
    60
  ],
  [
    "逝",
    "freq",
    60
  ],
  [
    "匿",
    "freq",
    60
  ],
  [
    "寡",
    "freq",
    60
  ],
  [
    "痢",
    "freq",
    60
  ],
  [
    "坑",
    "freq",
    60
  ],
  [
    "藍",
    "freq",
    60
  ],
  [
    "畔",
    "freq",
    60
  ],
  [
    "唄",
    "freq",
    60
  ],
  [
    "拷",
    "freq",
    60
  ],
  [
    "渓",
    "freq",
    60
  ],
  [
    "廉",
    "freq",
    60
  ],
  [
    "謹",
    "freq",
    60
  ],
  [
    "湧",
    "freq",
    60
  ],
  [
    "醜",
    "freq",
    60
  ],
  [
    "升",
    "freq",
    60
  ],
  [
    "殉",
    "freq",
    60
  ],
  [
    "煩",
    "freq",
    60
  ],
  [
    "劾",
    "freq",
    60
  ],
  [
    "桟",
    "freq",
    60
  ],
  [
    "婿",
    "freq",
    60
  ],
  [
    "慕",
    "freq",
    60
  ],
  [
    "罷",
    "freq",
    60
  ],
  [
    "矯",
    "freq",
    60
  ],
  [
    "某",
    "freq",
    60
  ],
  [
    "泌",
    "freq",
    60
  ],
  [
    "漸",
    "freq",
    60
  ],
  [
    "藻",
    "freq",
    60
  ],
  [
    "妄",
    "freq",
    60
  ],
  [
    "蛮",
    "freq",
    60
  ],
  [
    "倹",
    "freq",
    60
  ],
  [
    "冥",
    "freq",
    60
  ]
]